# Blender v2.78 (sub 0) OBJ File: 'CornerSegment.blend'
# www.blender.org
mtllib BoundryWall(Untextured).mtl
o Plane
v -1.382530 1.532458 2.560653
v -1.416023 1.657458 2.560653
v -1.507530 1.748964 2.560653
v -1.632530 1.782458 2.560653
v -1.757530 1.748964 2.560653
v -1.849036 1.657458 2.560653
v -1.882530 1.532458 2.560653
v -1.849036 1.407458 2.560653
v -1.757530 1.315951 2.560653
v -1.632530 1.282458 2.560653
v -1.507530 1.315951 2.560653
v -1.416023 1.407458 2.560653
v -1.393224 1.532458 2.397496
v -1.426431 1.657458 2.401867
v -1.517154 1.748964 2.413811
v -1.641085 1.782458 2.430127
v -1.765015 1.748964 2.446443
v -1.855739 1.657458 2.458387
v -1.888946 1.532458 2.462758
v -1.855739 1.407458 2.458387
v -1.765015 1.315951 2.446443
v -1.641085 1.282458 2.430127
v -1.517154 1.315951 2.413811
v -1.426431 1.407458 2.401867
v -1.425122 1.532458 2.237129
v -1.457475 1.657458 2.245798
v -1.545863 1.748964 2.269482
v -1.666604 1.782458 2.301834
v -1.787345 1.748964 2.334186
v -1.875733 1.657458 2.357870
v -1.908085 1.532458 2.366539
v -1.875733 1.407458 2.357870
v -1.787345 1.315951 2.334186
v -1.666604 1.282458 2.301834
v -1.545863 1.315951 2.269482
v -1.457475 1.407458 2.245798
v -1.477680 1.532458 2.082299
v -1.508624 1.657458 2.095116
v -1.593165 1.748964 2.130134
v -1.708650 1.782458 2.177970
v -1.824135 1.748964 2.225805
v -1.908676 1.657458 2.260823
v -1.939620 1.532458 2.273640
v -1.908676 1.407458 2.260823
v -1.824135 1.315951 2.225805
v -1.708650 1.282458 2.177970
v -1.593165 1.315951 2.130134
v -1.508624 1.407458 2.095116
v -1.549998 1.532458 1.935653
v -1.579004 1.657458 1.952400
v -1.658251 1.748964 1.998153
v -1.766504 1.782458 2.060653
v -1.874758 1.748964 2.123153
v -1.954004 1.657458 2.168906
v -1.983011 1.532458 2.185653
v -1.954004 1.407458 2.168906
v -1.874758 1.315951 2.123153
v -1.766504 1.282458 2.060653
v -1.658251 1.315951 1.998153
v -1.579004 1.407458 1.952400
v -1.640838 1.532458 1.799701
v -1.667410 1.657458 1.820091
v -1.740007 1.748964 1.875797
v -1.839176 1.782458 1.951892
v -1.938345 1.748964 2.027987
v -2.010942 1.657458 2.083692
v -2.037515 1.532458 2.104082
v -2.010942 1.407458 2.083692
v -1.938345 1.315951 2.027987
v -1.839176 1.282458 1.951892
v -1.740007 1.315951 1.875797
v -1.667410 1.407458 1.820091
v -1.748646 1.532458 1.676770
v -1.772330 1.657458 1.700453
v -1.837035 1.748964 1.765158
v -1.925423 1.782458 1.853546
v -2.013811 1.748964 1.941935
v -2.078516 1.657458 2.006639
v -2.102200 1.532458 2.030323
v -2.078516 1.407458 2.006639
v -2.013811 1.315951 1.941935
v -1.925423 1.282458 1.853546
v -1.837035 1.315951 1.765158
v -1.772330 1.407458 1.700453
v -1.871578 1.532458 1.568962
v -1.891967 1.657458 1.595534
v -1.947673 1.748964 1.668131
v -2.023768 1.782458 1.767300
v -2.099863 1.748964 1.866469
v -2.155569 1.657458 1.939066
v -2.175959 1.532458 1.965638
v -2.155569 1.407458 1.939066
v -2.099863 1.315951 1.866469
v -2.023768 1.282458 1.767300
v -1.947673 1.315951 1.668131
v -1.891967 1.407458 1.595534
v -2.007530 1.532458 1.478121
v -2.024276 1.657458 1.507128
v -2.070030 1.748964 1.586375
v -2.132530 1.782458 1.694628
v -2.195030 1.748964 1.802881
v -2.240783 1.657458 1.882128
v -2.257530 1.532458 1.911134
v -2.240783 1.407458 1.882128
v -2.195030 1.315951 1.802881
v -2.132530 1.282458 1.694628
v -2.070030 1.315951 1.586375
v -2.024276 1.407458 1.507128
v -2.154175 1.532458 1.405804
v -2.166993 1.657458 1.436748
v -2.202011 1.748964 1.521289
v -2.249846 1.782458 1.636774
v -2.297682 1.748964 1.752259
v -2.332700 1.657458 1.836800
v -2.345517 1.532458 1.867743
v -2.332700 1.407458 1.836800
v -2.297682 1.315951 1.752259
v -2.249846 1.282458 1.636774
v -2.202011 1.315951 1.521289
v -2.166993 1.407458 1.436748
v -2.309006 1.532458 1.353246
v -2.317675 1.657458 1.385598
v -2.341358 1.748964 1.473987
v -2.373711 1.782458 1.594727
v -2.406063 1.748964 1.715468
v -2.429747 1.657458 1.803856
v -2.438416 1.532458 1.836209
v -2.429747 1.407458 1.803856
v -2.406063 1.315951 1.715468
v -2.373711 1.282458 1.594727
v -2.341358 1.315951 1.473987
v -2.317675 1.407458 1.385598
v -2.469372 1.532458 1.321347
v -2.473744 1.657458 1.354554
v -2.485688 1.748964 1.445278
v -2.502004 1.782458 1.569208
v -2.518319 1.748964 1.693139
v -2.530263 1.657458 1.783862
v -2.534635 1.532458 1.817069
v -2.530263 1.407458 1.783862
v -2.518319 1.315951 1.693139
v -2.502004 1.282458 1.569208
v -2.485688 1.315951 1.445278
v -2.473744 1.407458 1.354554
v -2.632530 1.532458 1.310653
v -2.632529 1.657458 1.344147
v -2.632529 1.748964 1.435653
v -2.632530 1.782458 1.560653
v -2.632530 1.748964 1.685653
v -2.632530 1.657458 1.777159
v -2.632530 1.532458 1.810653
v -2.632530 1.407458 1.777159
v -2.632530 1.315951 1.685653
v -2.632530 1.282458 1.560653
v -2.632529 1.315951 1.435653
v -2.632529 1.407458 1.344147
v -4.000000 0.000000 4.000000
v -4.000000 0.000000 0.000000
v 0.000000 0.000000 4.000000
v 0.000000 0.000000 0.000000
v -4.000000 0.000000 2.000000
v -2.000000 0.000000 4.000000
v 0.000000 0.000000 2.000000
v -2.000000 0.000000 0.000000
v -2.000000 0.000000 2.000000
v -4.000000 0.000000 3.000000
v -4.000000 0.000000 -1.000000
v -1.000000 0.000000 4.000000
v 0.000000 0.000000 1.000000
v -3.000000 0.000000 0.000000
v 1.000000 0.000000 0.000000
v -4.000000 0.000000 1.000000
v 1.000000 0.000000 4.000000
v -3.000000 0.000000 4.000000
v 0.000000 0.000000 -1.000000
v 0.000000 0.000000 3.000000
v -1.000000 0.000000 0.000000
v 1.000000 0.000000 2.000000
v -2.000000 0.000000 1.000000
v -2.000000 0.000000 3.000000
v -3.000000 0.000000 2.000000
v -1.000000 0.000000 2.000000
v -2.000000 0.000000 -1.000000
v 1.000000 0.000000 -1.000000
v -1.000000 0.000000 -1.000000
v -3.000000 0.000000 -1.000000
v -1.000000 0.000000 3.000000
v -3.000000 0.000000 3.000000
v -3.000000 0.000000 1.000000
v 1.000000 0.000000 3.000000
v 1.000000 0.000000 1.000000
v -1.000000 0.000000 1.000000
v -4.000000 0.000000 3.000000
v -4.000000 0.000000 4.000000
v -1.000000 0.000000 4.000000
v 0.000000 0.000000 4.000000
v -3.000000 0.000000 0.000000
v -4.000000 0.000000 0.000000
v -4.000000 0.000000 1.000000
v -4.000000 0.000000 2.000000
v -3.000000 0.000000 4.000000
v -2.000000 0.000000 4.000000
v -3.000000 0.000000 2.000000
v 0.000000 0.000000 3.000000
v -2.000000 0.000000 3.000000
v -1.000000 0.000000 3.000000
v -3.000000 0.000000 3.000000
v -3.000000 0.000000 1.000000
v -3.979085 1.000000 3.047062
v -3.979085 1.000000 3.951360
v -1.266192 1.000000 3.951360
v -0.361895 1.000000 3.951360
v -3.074787 1.210749 0.544918
v -3.979085 1.000000 0.334170
v -3.979085 1.000000 1.238467
v -3.979085 1.000000 2.142764
v -3.074787 1.000000 3.951360
v -2.170490 1.000000 3.951360
v -3.074787 1.000000 2.142764
v -0.572643 1.210749 3.047062
v -2.170490 1.000000 3.047062
v -1.055444 1.210749 3.047062
v -3.074787 1.000000 3.047062
v -3.074787 1.210749 1.027718
v -3.979085 3.000000 3.047062
v -3.979085 3.000000 3.951360
v -1.266192 3.000000 3.951360
v -0.361895 3.000000 3.951360
v -3.074787 3.140834 0.475004
v -3.979085 3.000000 0.334170
v -3.979085 3.000000 1.238467
v -3.979085 3.000000 2.142764
v -3.074787 3.000000 3.951360
v -2.170490 3.000000 3.951360
v -3.074787 3.000000 2.142764
v -0.502729 3.140834 3.047062
v -2.170490 3.000000 3.047062
v -1.125358 3.140834 3.047062
v -3.074787 3.000000 3.047062
v -3.074787 3.140834 1.097633
v -3.979085 4.000000 3.047062
v -3.979085 4.000000 3.951360
v -1.266192 4.000000 3.951360
v -0.361895 4.000000 3.951360
v -3.074787 3.859166 0.475004
v -3.979085 4.000000 0.334170
v -3.979085 4.000000 1.238467
v -3.979085 4.000000 2.142764
v -3.074787 4.000000 3.951360
v -2.170490 4.000000 3.951360
v -3.074787 4.000000 2.142764
v -0.502729 3.859166 3.047062
v -2.170490 4.000000 3.047062
v -1.125358 3.859166 3.047062
v -3.074787 4.000000 3.047062
v -3.074787 3.859166 1.097633
v -3.979085 6.000000 3.047062
v -3.979085 6.000000 3.951360
v -1.266192 6.000000 3.951360
v -0.361895 6.000000 3.951360
v -3.074787 5.789251 0.544918
v -3.979085 6.000000 0.334170
v -3.979085 6.000000 1.238467
v -3.979085 6.000000 2.142764
v -3.074787 6.000000 3.951360
v -2.170490 6.000000 3.951360
v -3.074787 6.000000 2.142764
v -0.572643 5.789251 3.047062
v -2.170490 6.000000 3.047062
v -1.055444 5.789251 3.047062
v -3.074787 6.000000 3.047062
v -3.074787 5.789251 1.027718
v -3.979085 6.000000 3.047062
v -3.979085 6.000000 3.951360
v -1.266192 6.000000 3.951360
v -0.361895 6.000000 3.951360
v -3.074787 6.000000 0.334170
v -3.979085 6.000000 0.334170
v -3.979085 6.000000 1.238467
v -3.979085 6.000000 2.142764
v -3.074787 6.000000 3.951360
v -2.170490 6.000000 3.951360
v -3.074787 6.000000 2.142764
v -0.361895 6.000000 3.047062
v -2.170490 6.000000 3.047062
v -1.266192 6.000000 3.047062
v -3.074787 6.000000 3.047062
v -3.074787 6.000000 1.238467
v -4.006620 7.000000 2.939403
v -4.006620 7.000000 3.942382
v -0.997682 7.000000 3.942382
v 0.005297 7.000000 3.942382
v -3.003641 7.000000 -0.069535
v -4.006620 7.000000 -0.069535
v -4.006620 7.000000 0.933444
v -4.006620 7.000000 1.936423
v -3.003641 7.000000 3.942382
v -2.000661 7.000000 3.942382
v -3.003641 7.000000 1.936423
v 0.005297 7.000000 2.939403
v -2.000661 7.000000 2.939403
v -0.997682 7.000000 2.939403
v -3.003641 7.000000 2.939403
v -3.003641 7.000000 0.933444
v -2.085245 0.500000 3.023531
v -1.500000 0.000000 3.000000
v -1.133096 0.500000 3.023531
v -1.125358 3.500000 3.047062
v -2.170490 2.000000 3.047062
v -1.055444 2.000000 3.047062
v -2.170490 5.000000 3.047062
v -2.170490 3.500000 3.047062
v -1.718341 6.000000 3.047062
v -1.055444 5.000000 3.047062
v -1.718341 6.000000 3.047062
v -1.131937 6.500000 2.993232
v -1.499171 7.000000 2.939403
v -2.085575 6.500000 2.993232
v -3.037394 0.500000 2.071382
v -3.037394 0.500000 1.119233
v -3.000000 0.000000 1.500000
v -1.266192 4.000000 2.547062
v -1.266192 3.500000 2.547062
v -3.074787 2.000000 1.027718
v -3.074787 2.000000 2.142764
v -3.074787 5.000000 2.142764
v -3.074787 5.000000 1.027718
v -2.170490 3.000000 2.547062
v -3.074787 3.500000 2.142764
v -3.074787 3.500000 1.097633
v -1.718341 3.000000 2.547062
v -1.000000 0.000000 2.500000
v -3.074787 6.000000 1.238467
v -3.074787 6.000000 2.142764
v -3.003641 7.000000 1.434933
v -3.039214 6.500000 2.039594
v -3.039214 6.500000 1.085955
v -1.133096 0.500000 2.523531
v -1.718341 1.000000 2.547062
v -2.000000 0.000000 2.500000
v -1.500000 0.000000 2.500000
v -2.170490 1.000000 2.547062
v -2.085245 0.500000 2.523531
v -2.537394 0.500000 2.071382
v -2.500000 0.000000 2.000000
v -2.537394 0.500000 1.119233
v -2.500000 0.000000 1.000000
v -2.500000 0.000000 1.500000
v -2.574787 1.000000 1.690616
v -2.574787 1.000000 1.238467
v -2.574787 3.000000 1.690616
v -2.574787 3.000000 1.238467
v -2.574787 2.000000 1.238467
v -2.574787 2.000000 2.142764
v -2.574787 1.000000 2.142764
v -2.574787 5.000000 2.142764
v -2.574787 4.000000 2.142764
v -2.574787 5.000000 1.238467
v -2.574787 4.000000 1.238467
v -2.574787 4.000000 1.690616
v -2.574787 3.500000 2.142764
v -2.574787 3.500000 1.238467
v -2.574787 6.000000 1.690616
v -2.574787 6.000000 1.238467
v -2.574787 6.000000 1.690616
v -2.574787 6.000000 1.238467
v -2.574787 6.000000 1.238467
v -2.574787 6.000000 2.142764
v -2.574787 6.000000 2.142764
v -2.503641 7.000000 1.434933
v -2.503641 7.000000 0.933444
v -2.539214 6.500000 2.039594
v -2.503641 7.000000 1.936423
v -2.539214 6.500000 1.085955
v -2.574787 3.000000 2.142764
v -2.574787 6.000000 2.142764
v -2.539214 6.500000 1.562775
v -2.574787 6.000000 1.690616
v -2.574787 3.500000 1.690616
v -2.574787 5.000000 1.690616
v -2.574787 2.000000 1.690616
v -2.537394 0.500000 1.595308
v -2.170490 2.000000 2.547062
v -1.266192 2.000000 2.547062
v -1.266192 1.000000 2.547062
v -2.170490 5.000000 2.547062
v -2.170490 6.000000 2.547062
v -1.718341 4.000000 2.547062
v -2.170490 4.000000 2.547062
v -2.170490 3.500000 2.547062
v -1.718341 6.000000 2.547062
v -1.266192 5.000000 2.547062
v -1.718341 6.000000 2.547062
v -2.170490 6.000000 2.547062
v -1.131937 6.500000 2.493232
v -0.997682 7.000000 2.439403
v -1.499171 7.000000 2.439403
v -2.000661 7.000000 2.439403
v -2.085575 6.500000 2.493232
v -1.266192 3.000000 2.547062
v -1.266192 6.000000 2.547062
v -1.266192 6.000000 2.547062
v -1.608756 6.500000 2.493232
v -1.718341 3.500000 2.547062
v -1.718341 5.000000 2.547062
v -1.718341 2.000000 2.547062
v -1.609170 0.500000 2.523531
v -1.382530 2.504226 2.560653
v -1.416023 2.629226 2.560653
v -1.507530 2.720733 2.560653
v -1.632530 2.754226 2.560653
v -1.757530 2.720733 2.560653
v -1.849036 2.629226 2.560653
v -1.882530 2.504226 2.560653
v -1.849036 2.379226 2.560653
v -1.757530 2.287720 2.560653
v -1.632530 2.254226 2.560653
v -1.507530 2.287720 2.560653
v -1.416023 2.379226 2.560653
v -1.393224 2.504226 2.397496
v -1.426431 2.629226 2.401867
v -1.517154 2.720733 2.413811
v -1.641085 2.754226 2.430127
v -1.765015 2.720733 2.446443
v -1.855739 2.629226 2.458387
v -1.888946 2.504226 2.462758
v -1.855739 2.379226 2.458387
v -1.765015 2.287720 2.446443
v -1.641085 2.254226 2.430127
v -1.517154 2.287720 2.413811
v -1.426431 2.379226 2.401867
v -1.425122 2.504226 2.237129
v -1.457475 2.629226 2.245798
v -1.545863 2.720733 2.269482
v -1.666604 2.754226 2.301834
v -1.787345 2.720733 2.334186
v -1.875733 2.629226 2.357870
v -1.908085 2.504226 2.366539
v -1.875733 2.379226 2.357870
v -1.787345 2.287720 2.334186
v -1.666604 2.254226 2.301834
v -1.545863 2.287720 2.269482
v -1.457475 2.379226 2.245798
v -1.477680 2.504226 2.082299
v -1.508624 2.629226 2.095116
v -1.593165 2.720733 2.130134
v -1.708650 2.754226 2.177970
v -1.824135 2.720733 2.225805
v -1.908676 2.629226 2.260823
v -1.939620 2.504226 2.273640
v -1.908676 2.379226 2.260823
v -1.824135 2.287720 2.225805
v -1.708650 2.254226 2.177970
v -1.593165 2.287720 2.130134
v -1.508624 2.379226 2.095116
v -1.549998 2.504226 1.935653
v -1.579004 2.629226 1.952400
v -1.658251 2.720733 1.998153
v -1.766504 2.754226 2.060653
v -1.874758 2.720733 2.123153
v -1.954004 2.629226 2.168906
v -1.983011 2.504226 2.185653
v -1.954004 2.379226 2.168906
v -1.874758 2.287720 2.123153
v -1.766504 2.254226 2.060653
v -1.658251 2.287720 1.998153
v -1.579004 2.379226 1.952400
v -1.640838 2.504226 1.799701
v -1.667410 2.629226 1.820091
v -1.740007 2.720733 1.875797
v -1.839176 2.754226 1.951892
v -1.938345 2.720733 2.027987
v -2.010942 2.629226 2.083692
v -2.037515 2.504226 2.104082
v -2.010942 2.379226 2.083692
v -1.938345 2.287720 2.027987
v -1.839176 2.254226 1.951892
v -1.740007 2.287720 1.875797
v -1.667410 2.379226 1.820091
v -1.748646 2.504226 1.676770
v -1.772330 2.629226 1.700453
v -1.837035 2.720733 1.765158
v -1.925423 2.754226 1.853546
v -2.013811 2.720733 1.941935
v -2.078516 2.629226 2.006639
v -2.102200 2.504226 2.030323
v -2.078516 2.379226 2.006639
v -2.013811 2.287720 1.941935
v -1.925423 2.254226 1.853546
v -1.837035 2.287720 1.765158
v -1.772330 2.379226 1.700453
v -1.871578 2.504226 1.568962
v -1.891967 2.629226 1.595534
v -1.947673 2.720733 1.668131
v -2.023768 2.754226 1.767300
v -2.099863 2.720733 1.866469
v -2.155569 2.629226 1.939066
v -2.175959 2.504226 1.965638
v -2.155569 2.379226 1.939066
v -2.099863 2.287720 1.866469
v -2.023768 2.254226 1.767300
v -1.947673 2.287720 1.668131
v -1.891967 2.379226 1.595534
v -2.007530 2.504226 1.478121
v -2.024276 2.629226 1.507128
v -2.070030 2.720733 1.586375
v -2.132530 2.754226 1.694628
v -2.195030 2.720733 1.802881
v -2.240783 2.629226 1.882128
v -2.257530 2.504226 1.911134
v -2.240783 2.379226 1.882128
v -2.195030 2.287720 1.802881
v -2.132530 2.254226 1.694628
v -2.070030 2.287720 1.586375
v -2.024276 2.379226 1.507128
v -2.154175 2.504226 1.405804
v -2.166993 2.629226 1.436748
v -2.202011 2.720733 1.521289
v -2.249846 2.754226 1.636774
v -2.297682 2.720733 1.752259
v -2.332700 2.629226 1.836800
v -2.345517 2.504226 1.867743
v -2.332700 2.379226 1.836800
v -2.297682 2.287720 1.752259
v -2.249846 2.254226 1.636774
v -2.202011 2.287720 1.521289
v -2.166993 2.379226 1.436748
v -2.309006 2.504226 1.353246
v -2.317675 2.629226 1.385598
v -2.341358 2.720733 1.473987
v -2.373711 2.754226 1.594727
v -2.406063 2.720733 1.715468
v -2.429747 2.629226 1.803856
v -2.438416 2.504226 1.836209
v -2.429747 2.379226 1.803856
v -2.406063 2.287720 1.715468
v -2.373711 2.254226 1.594727
v -2.341358 2.287720 1.473987
v -2.317675 2.379226 1.385598
v -2.469372 2.504226 1.321347
v -2.473744 2.629226 1.354554
v -2.485688 2.720733 1.445278
v -2.502004 2.754226 1.569208
v -2.518319 2.720733 1.693139
v -2.530263 2.629226 1.783862
v -2.534635 2.504226 1.817069
v -2.530263 2.379226 1.783862
v -2.518319 2.287720 1.693139
v -2.502004 2.254226 1.569208
v -2.485688 2.287720 1.445278
v -2.473744 2.379226 1.354554
v -2.632530 2.504226 1.310653
v -2.632529 2.629226 1.344147
v -2.632529 2.720733 1.435653
v -2.632530 2.754226 1.560653
v -2.632530 2.720733 1.685653
v -2.632530 2.629226 1.777159
v -2.632530 2.504226 1.810653
v -2.632530 2.379226 1.777159
v -2.632530 2.287720 1.685653
v -2.632530 2.254226 1.560653
v -2.632529 2.287720 1.435653
v -2.632529 2.379226 1.344147
v -1.382530 3.455894 2.560653
v -1.416023 3.580894 2.560653
v -1.507530 3.672400 2.560653
v -1.632530 3.705894 2.560653
v -1.757530 3.672400 2.560653
v -1.849036 3.580894 2.560653
v -1.882530 3.455894 2.560653
v -1.849036 3.330894 2.560653
v -1.757530 3.239388 2.560653
v -1.632530 3.205894 2.560653
v -1.507530 3.239388 2.560653
v -1.416023 3.330894 2.560653
v -1.393224 3.455894 2.397496
v -1.426431 3.580894 2.401867
v -1.517154 3.672400 2.413811
v -1.641085 3.705894 2.430127
v -1.765015 3.672400 2.446443
v -1.855739 3.580894 2.458387
v -1.888946 3.455894 2.462758
v -1.855739 3.330894 2.458387
v -1.765015 3.239388 2.446443
v -1.641085 3.205894 2.430127
v -1.517154 3.239388 2.413811
v -1.426431 3.330894 2.401867
v -1.425122 3.455894 2.237129
v -1.457475 3.580894 2.245798
v -1.545863 3.672400 2.269482
v -1.666604 3.705894 2.301834
v -1.787345 3.672400 2.334186
v -1.875733 3.580894 2.357870
v -1.908085 3.455894 2.366539
v -1.875733 3.330894 2.357870
v -1.787345 3.239388 2.334186
v -1.666604 3.205894 2.301834
v -1.545863 3.239388 2.269482
v -1.457475 3.330894 2.245798
v -1.477680 3.455894 2.082299
v -1.508624 3.580894 2.095116
v -1.593165 3.672400 2.130134
v -1.708650 3.705894 2.177970
v -1.824135 3.672400 2.225805
v -1.908676 3.580894 2.260823
v -1.939620 3.455894 2.273640
v -1.908676 3.330894 2.260823
v -1.824135 3.239388 2.225805
v -1.708650 3.205894 2.177970
v -1.593165 3.239388 2.130134
v -1.508624 3.330894 2.095116
v -1.549998 3.455894 1.935653
v -1.579004 3.580894 1.952400
v -1.658251 3.672400 1.998153
v -1.766504 3.705894 2.060653
v -1.874758 3.672400 2.123153
v -1.954004 3.580894 2.168906
v -1.983011 3.455894 2.185653
v -1.954004 3.330894 2.168906
v -1.874758 3.239388 2.123153
v -1.766504 3.205894 2.060653
v -1.658251 3.239388 1.998153
v -1.579004 3.330894 1.952400
v -1.640838 3.455894 1.799701
v -1.667410 3.580894 1.820091
v -1.740007 3.672400 1.875797
v -1.839176 3.705894 1.951892
v -1.938345 3.672400 2.027987
v -2.010942 3.580894 2.083692
v -2.037515 3.455894 2.104082
v -2.010942 3.330894 2.083692
v -1.938345 3.239388 2.027987
v -1.839176 3.205894 1.951892
v -1.740007 3.239388 1.875797
v -1.667410 3.330894 1.820091
v -1.748646 3.455894 1.676770
v -1.772330 3.580894 1.700453
v -1.837035 3.672400 1.765158
v -1.925423 3.705894 1.853546
v -2.013811 3.672400 1.941935
v -2.078516 3.580894 2.006639
v -2.102200 3.455894 2.030323
v -2.078516 3.330894 2.006639
v -2.013811 3.239388 1.941935
v -1.925423 3.205894 1.853546
v -1.837035 3.239388 1.765158
v -1.772330 3.330894 1.700453
v -1.871578 3.455894 1.568962
v -1.891967 3.580894 1.595534
v -1.947673 3.672400 1.668131
v -2.023768 3.705894 1.767300
v -2.099863 3.672400 1.866469
v -2.155569 3.580894 1.939066
v -2.175959 3.455894 1.965638
v -2.155569 3.330894 1.939066
v -2.099863 3.239388 1.866469
v -2.023768 3.205894 1.767300
v -1.947673 3.239388 1.668131
v -1.891967 3.330894 1.595534
v -2.007530 3.455894 1.478121
v -2.024276 3.580894 1.507128
v -2.070030 3.672400 1.586375
v -2.132530 3.705894 1.694628
v -2.195030 3.672400 1.802881
v -2.240783 3.580894 1.882128
v -2.257530 3.455894 1.911134
v -2.240783 3.330894 1.882128
v -2.195030 3.239388 1.802881
v -2.132530 3.205894 1.694628
v -2.070030 3.239388 1.586375
v -2.024276 3.330894 1.507128
v -2.154175 3.455894 1.405804
v -2.166993 3.580894 1.436748
v -2.202011 3.672400 1.521289
v -2.249846 3.705894 1.636774
v -2.297682 3.672400 1.752259
v -2.332700 3.580894 1.836800
v -2.345517 3.455894 1.867743
v -2.332700 3.330894 1.836800
v -2.297682 3.239388 1.752259
v -2.249846 3.205894 1.636774
v -2.202011 3.239388 1.521289
v -2.166993 3.330894 1.436748
v -2.309006 3.455894 1.353246
v -2.317675 3.580894 1.385598
v -2.341358 3.672400 1.473987
v -2.373711 3.705894 1.594727
v -2.406063 3.672400 1.715468
v -2.429747 3.580894 1.803856
v -2.438416 3.455894 1.836209
v -2.429747 3.330894 1.803856
v -2.406063 3.239388 1.715468
v -2.373711 3.205894 1.594727
v -2.341358 3.239388 1.473987
v -2.317675 3.330894 1.385598
v -2.469372 3.455894 1.321347
v -2.473744 3.580894 1.354554
v -2.485688 3.672400 1.445278
v -2.502004 3.705894 1.569208
v -2.518319 3.672400 1.693139
v -2.530263 3.580894 1.783862
v -2.534635 3.455894 1.817069
v -2.530263 3.330894 1.783862
v -2.518319 3.239388 1.693139
v -2.502004 3.205894 1.569208
v -2.485688 3.239388 1.445278
v -2.473744 3.330894 1.354554
v -2.632530 3.455894 1.310653
v -2.632529 3.580894 1.344147
v -2.632529 3.672400 1.435653
v -2.632530 3.705894 1.560653
v -2.632530 3.672400 1.685653
v -2.632530 3.580894 1.777159
v -2.632530 3.455894 1.810653
v -2.632530 3.330894 1.777159
v -2.632530 3.239388 1.685653
v -2.632530 3.205894 1.560653
v -2.632529 3.239388 1.435653
v -2.632529 3.330894 1.344147
v -1.382530 4.379955 2.560653
v -1.416023 4.504955 2.560653
v -1.507530 4.596461 2.560653
v -1.632530 4.629955 2.560653
v -1.757530 4.596461 2.560653
v -1.849036 4.504955 2.560653
v -1.882530 4.379955 2.560653
v -1.849036 4.254955 2.560653
v -1.757530 4.163448 2.560653
v -1.632530 4.129955 2.560653
v -1.507530 4.163448 2.560653
v -1.416023 4.254955 2.560653
v -1.393224 4.379955 2.397496
v -1.426431 4.504955 2.401867
v -1.517154 4.596461 2.413811
v -1.641085 4.629955 2.430127
v -1.765015 4.596461 2.446443
v -1.855739 4.504955 2.458387
v -1.888946 4.379955 2.462758
v -1.855739 4.254955 2.458387
v -1.765015 4.163448 2.446443
v -1.641085 4.129955 2.430127
v -1.517154 4.163448 2.413811
v -1.426431 4.254955 2.401867
v -1.425122 4.379955 2.237129
v -1.457475 4.504955 2.245798
v -1.545863 4.596461 2.269482
v -1.666604 4.629955 2.301834
v -1.787345 4.596461 2.334186
v -1.875733 4.504955 2.357870
v -1.908085 4.379955 2.366539
v -1.875733 4.254955 2.357870
v -1.787345 4.163448 2.334186
v -1.666604 4.129955 2.301834
v -1.545863 4.163448 2.269482
v -1.457475 4.254955 2.245798
v -1.477680 4.379955 2.082299
v -1.508624 4.504955 2.095116
v -1.593165 4.596461 2.130134
v -1.708650 4.629955 2.177970
v -1.824135 4.596461 2.225805
v -1.908676 4.504955 2.260823
v -1.939620 4.379955 2.273640
v -1.908676 4.254955 2.260823
v -1.824135 4.163448 2.225805
v -1.708650 4.129955 2.177970
v -1.593165 4.163448 2.130134
v -1.508624 4.254955 2.095116
v -1.549998 4.379955 1.935653
v -1.579004 4.504955 1.952400
v -1.658251 4.596461 1.998153
v -1.766504 4.629955 2.060653
v -1.874758 4.596461 2.123153
v -1.954004 4.504955 2.168906
v -1.983011 4.379955 2.185653
v -1.954004 4.254955 2.168906
v -1.874758 4.163448 2.123153
v -1.766504 4.129955 2.060653
v -1.658251 4.163448 1.998153
v -1.579004 4.254955 1.952400
v -1.640838 4.379955 1.799701
v -1.667410 4.504955 1.820091
v -1.740007 4.596461 1.875797
v -1.839176 4.629955 1.951892
v -1.938345 4.596461 2.027987
v -2.010942 4.504955 2.083692
v -2.037515 4.379955 2.104082
v -2.010942 4.254955 2.083692
v -1.938345 4.163448 2.027987
v -1.839176 4.129955 1.951892
v -1.740007 4.163448 1.875797
v -1.667410 4.254955 1.820091
v -1.748646 4.379955 1.676770
v -1.772330 4.504955 1.700453
v -1.837035 4.596461 1.765158
v -1.925423 4.629955 1.853546
v -2.013811 4.596461 1.941935
v -2.078516 4.504955 2.006639
v -2.102200 4.379955 2.030323
v -2.078516 4.254955 2.006639
v -2.013811 4.163448 1.941935
v -1.925423 4.129955 1.853546
v -1.837035 4.163448 1.765158
v -1.772330 4.254955 1.700453
v -1.871578 4.379955 1.568962
v -1.891967 4.504955 1.595534
v -1.947673 4.596461 1.668131
v -2.023768 4.629955 1.767300
v -2.099863 4.596461 1.866469
v -2.155569 4.504955 1.939066
v -2.175959 4.379955 1.965638
v -2.155569 4.254955 1.939066
v -2.099863 4.163448 1.866469
v -2.023768 4.129955 1.767300
v -1.947673 4.163448 1.668131
v -1.891967 4.254955 1.595534
v -2.007530 4.379955 1.478121
v -2.024276 4.504955 1.507128
v -2.070030 4.596461 1.586375
v -2.132530 4.629955 1.694628
v -2.195030 4.596461 1.802881
v -2.240783 4.504955 1.882128
v -2.257530 4.379955 1.911134
v -2.240783 4.254955 1.882128
v -2.195030 4.163448 1.802881
v -2.132530 4.129955 1.694628
v -2.070030 4.163448 1.586375
v -2.024276 4.254955 1.507128
v -2.154175 4.379955 1.405804
v -2.166993 4.504955 1.436748
v -2.202011 4.596461 1.521289
v -2.249846 4.629955 1.636774
v -2.297682 4.596461 1.752259
v -2.332700 4.504955 1.836800
v -2.345517 4.379955 1.867743
v -2.332700 4.254955 1.836800
v -2.297682 4.163448 1.752259
v -2.249846 4.129955 1.636774
v -2.202011 4.163448 1.521289
v -2.166993 4.254955 1.436748
v -2.309006 4.379955 1.353246
v -2.317675 4.504955 1.385598
v -2.341358 4.596461 1.473987
v -2.373711 4.629955 1.594727
v -2.406063 4.596461 1.715468
v -2.429747 4.504955 1.803856
v -2.438416 4.379955 1.836209
v -2.429747 4.254955 1.803856
v -2.406063 4.163448 1.715468
v -2.373711 4.129955 1.594727
v -2.341358 4.163448 1.473987
v -2.317675 4.254955 1.385598
v -2.469372 4.379955 1.321347
v -2.473744 4.504955 1.354554
v -2.485688 4.596461 1.445278
v -2.502004 4.629955 1.569208
v -2.518319 4.596461 1.693139
v -2.530263 4.504955 1.783862
v -2.534635 4.379955 1.817069
v -2.530263 4.254955 1.783862
v -2.518319 4.163448 1.693139
v -2.502004 4.129955 1.569208
v -2.485688 4.163448 1.445278
v -2.473744 4.254955 1.354554
v -2.632530 4.379955 1.310653
v -2.632529 4.504955 1.344147
v -2.632529 4.596461 1.435653
v -2.632530 4.629955 1.560653
v -2.632530 4.596461 1.685653
v -2.632530 4.504955 1.777159
v -2.632530 4.379955 1.810653
v -2.632530 4.254955 1.777159
v -2.632530 4.163448 1.685653
v -2.632530 4.129955 1.560653
v -2.632529 4.163448 1.435653
v -2.632529 4.254955 1.344147
v -1.382530 5.334131 2.560653
v -1.416023 5.459131 2.560653
v -1.507530 5.550637 2.560653
v -1.632530 5.584131 2.560653
v -1.757530 5.550637 2.560653
v -1.849036 5.459131 2.560653
v -1.882530 5.334131 2.560653
v -1.849036 5.209131 2.560653
v -1.757530 5.117624 2.560653
v -1.632530 5.084131 2.560653
v -1.507530 5.117624 2.560653
v -1.416023 5.209131 2.560653
v -1.393224 5.334131 2.397496
v -1.426431 5.459131 2.401867
v -1.517154 5.550637 2.413811
v -1.641085 5.584131 2.430127
v -1.765015 5.550637 2.446443
v -1.855739 5.459131 2.458387
v -1.888946 5.334131 2.462758
v -1.855739 5.209131 2.458387
v -1.765015 5.117624 2.446443
v -1.641085 5.084131 2.430127
v -1.517154 5.117624 2.413811
v -1.426431 5.209131 2.401867
v -1.425122 5.334131 2.237129
v -1.457475 5.459131 2.245798
v -1.545863 5.550637 2.269482
v -1.666604 5.584131 2.301834
v -1.787345 5.550637 2.334186
v -1.875733 5.459131 2.357870
v -1.908085 5.334131 2.366539
v -1.875733 5.209131 2.357870
v -1.787345 5.117624 2.334186
v -1.666604 5.084131 2.301834
v -1.545863 5.117624 2.269482
v -1.457475 5.209131 2.245798
v -1.477680 5.334131 2.082299
v -1.508624 5.459131 2.095116
v -1.593165 5.550637 2.130134
v -1.708650 5.584131 2.177970
v -1.824135 5.550637 2.225805
v -1.908676 5.459131 2.260823
v -1.939620 5.334131 2.273640
v -1.908676 5.209131 2.260823
v -1.824135 5.117624 2.225805
v -1.708650 5.084131 2.177970
v -1.593165 5.117624 2.130134
v -1.508624 5.209131 2.095116
v -1.549998 5.334131 1.935653
v -1.579004 5.459131 1.952400
v -1.658251 5.550637 1.998153
v -1.766504 5.584131 2.060653
v -1.874758 5.550637 2.123153
v -1.954004 5.459131 2.168906
v -1.983011 5.334131 2.185653
v -1.954004 5.209131 2.168906
v -1.874758 5.117624 2.123153
v -1.766504 5.084131 2.060653
v -1.658251 5.117624 1.998153
v -1.579004 5.209131 1.952400
v -1.640838 5.334131 1.799701
v -1.667410 5.459131 1.820091
v -1.740007 5.550637 1.875797
v -1.839176 5.584131 1.951892
v -1.938345 5.550637 2.027987
v -2.010942 5.459131 2.083692
v -2.037515 5.334131 2.104082
v -2.010942 5.209131 2.083692
v -1.938345 5.117624 2.027987
v -1.839176 5.084131 1.951892
v -1.740007 5.117624 1.875797
v -1.667410 5.209131 1.820091
v -1.748646 5.334131 1.676770
v -1.772330 5.459131 1.700453
v -1.837035 5.550637 1.765158
v -1.925423 5.584131 1.853546
v -2.013811 5.550637 1.941935
v -2.078516 5.459131 2.006639
v -2.102200 5.334131 2.030323
v -2.078516 5.209131 2.006639
v -2.013811 5.117624 1.941935
v -1.925423 5.084131 1.853546
v -1.837035 5.117624 1.765158
v -1.772330 5.209131 1.700453
v -1.871578 5.334131 1.568962
v -1.891967 5.459131 1.595534
v -1.947673 5.550637 1.668131
v -2.023768 5.584131 1.767300
v -2.099863 5.550637 1.866469
v -2.155569 5.459131 1.939066
v -2.175959 5.334131 1.965638
v -2.155569 5.209131 1.939066
v -2.099863 5.117624 1.866469
v -2.023768 5.084131 1.767300
v -1.947673 5.117624 1.668131
v -1.891967 5.209131 1.595534
v -2.007530 5.334131 1.478121
v -2.024276 5.459131 1.507128
v -2.070030 5.550637 1.586375
v -2.132530 5.584131 1.694628
v -2.195030 5.550637 1.802881
v -2.240783 5.459131 1.882128
v -2.257530 5.334131 1.911134
v -2.240783 5.209131 1.882128
v -2.195030 5.117624 1.802881
v -2.132530 5.084131 1.694628
v -2.070030 5.117624 1.586375
v -2.024276 5.209131 1.507128
v -2.154175 5.334131 1.405804
v -2.166993 5.459131 1.436748
v -2.202011 5.550637 1.521289
v -2.249846 5.584131 1.636774
v -2.297682 5.550637 1.752259
v -2.332700 5.459131 1.836800
v -2.345517 5.334131 1.867743
v -2.332700 5.209131 1.836800
v -2.297682 5.117624 1.752259
v -2.249846 5.084131 1.636774
v -2.202011 5.117624 1.521289
v -2.166993 5.209131 1.436748
v -2.309006 5.334131 1.353246
v -2.317675 5.459131 1.385598
v -2.341358 5.550637 1.473987
v -2.373711 5.584131 1.594727
v -2.406063 5.550637 1.715468
v -2.429747 5.459131 1.803856
v -2.438416 5.334131 1.836209
v -2.429747 5.209131 1.803856
v -2.406063 5.117624 1.715468
v -2.373711 5.084131 1.594727
v -2.341358 5.117624 1.473987
v -2.317675 5.209131 1.385598
v -2.469372 5.334131 1.321347
v -2.473744 5.459131 1.354554
v -2.485688 5.550637 1.445278
v -2.502004 5.584131 1.569208
v -2.518319 5.550637 1.693139
v -2.530263 5.459131 1.783862
v -2.534635 5.334131 1.817069
v -2.530263 5.209131 1.783862
v -2.518319 5.117624 1.693139
v -2.502004 5.084131 1.569208
v -2.485688 5.117624 1.445278
v -2.473744 5.209131 1.354554
v -2.632530 5.334131 1.310653
v -2.632529 5.459131 1.344147
v -2.632529 5.550637 1.435653
v -2.632530 5.584131 1.560653
v -2.632530 5.550637 1.685653
v -2.632530 5.459131 1.777159
v -2.632530 5.334131 1.810653
v -2.632530 5.209131 1.777159
v -2.632530 5.117624 1.685653
v -2.632530 5.084131 1.560653
v -2.632529 5.117624 1.435653
v -2.632529 5.209131 1.344147
v -0.572643 2.789252 3.047062
v -1.055444 2.789252 3.047062
v -0.572643 4.210749 3.047062
v -3.074787 2.789252 1.027718
v -3.074787 2.789252 0.544918
v -1.266192 3.500000 3.047062
v -1.055444 4.210749 3.047062
v -3.074787 4.210749 1.027718
v -3.074787 4.210749 0.544918
v -3.074787 3.500000 1.238467
v -0.502729 3.140834 3.047062
v -1.125358 3.140834 3.047062
v -0.502729 3.859166 3.047062
v -1.125358 3.500000 3.047062
v -1.125358 3.859166 3.047062
v -0.502729 3.140834 3.347062
v -1.125358 3.140834 3.347062
v -0.502729 3.859166 3.347062
v -1.125358 3.500000 3.347062
v -1.125358 3.859166 3.347062
v -3.374787 3.140834 1.097633
v -3.374787 3.140834 0.475004
v -3.374787 3.859166 1.097633
v -3.374787 3.859166 0.475004
v -3.374787 3.500000 1.097633
v -0.361895 1.000000 3.047062
v -0.361895 3.000000 3.047062
v -3.074787 3.000000 0.334170
v -3.074787 1.000000 0.334170
v -1.266192 1.000000 3.047062
v -3.074787 1.000000 1.238467
v -1.266192 3.000000 3.047062
v -3.074787 3.000000 1.238467
v -3.074787 2.000000 1.238467
v -1.266192 2.000000 3.047062
v -3.074787 5.000000 1.238467
v -3.074787 4.000000 1.238467
v -0.361895 4.000000 3.047062
v -1.266192 4.000000 3.047062
v -3.074787 4.000000 0.334170
v -3.074787 6.000000 0.334170
v -0.361895 6.000000 3.047062
v -1.266192 6.000000 3.047062
v -3.074787 6.000000 1.238467
v -1.266192 5.000000 3.047062
v -0.572643 1.210749 3.047062
v -0.572643 2.789252 3.047062
v -3.074787 2.789252 0.544918
v -3.074787 1.210749 0.544918
v -1.055444 1.210749 3.047062
v -3.074787 1.210749 1.027718
v -1.055444 2.789252 3.047062
v -3.074787 2.789252 1.027718
v -3.074787 2.000000 1.027718
v -1.055444 2.000000 3.047062
v -3.074787 5.000000 1.027718
v -3.074787 4.210749 1.027718
v -0.572643 4.210749 3.047062
v -1.055444 4.210749 3.047062
v -3.074787 4.210749 0.544918
v -3.074787 5.789251 0.544918
v -0.572643 5.789251 3.047062
v -1.055444 5.789251 3.047062
v -3.074787 5.789251 1.027718
v -1.055444 5.000000 3.047062
v -0.645910 1.575305 2.944818
v -0.645910 2.703802 2.944818
v -2.972543 2.703802 0.618185
v -2.972543 1.575305 0.618185
v -1.055444 1.210749 3.047062
v -3.074787 1.210749 1.027718
v -1.055444 2.789252 3.047062
v -3.074787 2.789252 1.027718
v -3.074787 2.000000 1.027718
v -1.055444 2.000000 3.047062
v -3.074787 5.000000 1.027718
v -3.074787 4.210749 1.027718
v -0.645910 4.296198 2.944818
v -1.055444 4.210749 3.047062
v -2.972543 4.296198 0.618185
v -2.972543 5.424695 0.618185
v -0.645910 5.424695 2.944818
v -1.055444 5.789251 3.047062
v -3.074787 5.789251 1.027718
v -1.055444 5.000000 3.047062
v -1.129943 2.636147 2.269353
v -1.129943 3.033164 2.269353
v -2.297078 3.033164 1.102217
v -2.297078 2.636147 1.102217
v -1.394548 2.592747 2.167109
v -2.194834 2.592747 1.366823
v -1.394548 3.218324 2.167109
v -2.194834 3.218324 1.366823
v -2.194834 2.905535 1.366823
v -1.394548 2.905535 2.167109
v -2.194834 4.094465 1.366823
v -2.194834 3.781677 1.366823
v -1.129943 3.966837 2.269353
v -1.394548 3.781677 2.167109
v -2.297078 3.966837 1.102217
v -2.297078 4.363853 1.102217
v -1.129943 4.363853 2.269353
v -1.394548 4.407253 2.167109
v -2.194834 4.407253 1.366823
v -1.394548 4.094465 2.167109
v -0.572643 1.210749 3.047062
v -0.572643 2.789252 3.047062
v -3.074787 2.789252 0.544918
v -3.074787 1.210749 0.544918
v -3.074787 4.210749 0.544918
v -3.074787 5.789251 0.544918
v -0.572643 5.789251 3.047062
v -0.572643 4.210749 3.047062
v -1.203210 2.592747 2.167109
v -1.203210 3.218324 2.167109
v -2.194834 3.218324 1.175484
v -2.194834 2.592747 1.175484
v -2.194834 3.781677 1.175484
v -2.194834 4.407253 1.175484
v -1.203210 4.407253 2.167109
v -1.203210 3.781677 2.167109
v -0.716621 1.575305 3.015529
v -0.716621 2.703802 3.015529
v -3.043254 2.703802 0.688896
v -3.043254 1.575305 0.688896
v -3.043254 4.296198 0.688896
v -3.043254 5.424695 0.688896
v -0.716621 5.424695 3.015529
v -0.716621 4.296198 3.015529
v -1.200653 2.636147 2.340063
v -1.200653 3.033164 2.340063
v -2.367789 3.033164 1.172928
v -2.367789 2.636147 1.172928
v -2.367789 3.966837 1.172928
v -2.367789 4.363853 1.172928
v -1.200653 4.363853 2.340063
v -1.200653 3.966837 2.340063
vn 0.0000 1.0000 0.0000
vn 0.0000 0.0000 1.0000
vn 0.0000 0.0486 0.9988
vn 0.0000 0.0470 -0.9989
vn -0.9998 0.0209 0.0000
vn 0.9972 0.0746 0.0000
vn 0.0000 0.0000 -1.0000
vn -1.0000 0.0000 0.0000
vn 1.0000 0.0000 0.0000
vn 0.0000 0.3169 -0.9484
vn 0.9403 0.3403 0.0000
vn 0.0000 0.0090 1.0000
vn -0.9996 -0.0275 0.0000
vn 0.9975 -0.0710 0.0000
vn 0.0000 -0.1070 -0.9943
vn 0.0000 -0.3744 -0.9273
vn 0.9387 -0.3447 0.0000
vn 0.9640 0.2583 -0.0632
vn 0.7063 0.7063 -0.0463
vn 0.2588 0.9658 -0.0170
vn 0.9640 -0.2583 -0.0632
vn 0.0632 0.2583 -0.9640
vn -0.2588 0.9658 0.0170
vn -0.2544 0.9658 0.0506
vn 0.0632 -0.2583 -0.9640
vn -0.4383 -0.8988 0.0000
vn -0.3596 0.0000 0.9331
vn -0.9331 0.0000 0.3596
vn 0.0000 -0.8988 0.4383
vn 0.5595 -0.6115 0.5595
vn -0.5595 -0.6115 -0.5595
vn -0.7071 0.0000 -0.7071
vn 0.7071 0.0000 0.7071
vn -0.7063 0.7063 0.0463
vn -0.9640 0.2583 0.0632
vn -0.9640 -0.2583 0.0632
vn -0.7063 -0.7063 0.0463
vn -0.2588 -0.9658 0.0170
vn 0.2588 -0.9658 -0.0170
vn 0.7063 -0.7063 -0.0463
vn 0.9475 0.2583 -0.1885
vn 0.6943 0.7063 -0.1381
vn 0.2544 0.9658 -0.0506
vn -0.6943 0.7063 0.1381
vn -0.9475 0.2583 0.1885
vn -0.9475 -0.2583 0.1885
vn -0.6943 -0.7063 0.1381
vn -0.2544 -0.9658 0.0506
vn 0.2544 -0.9658 -0.0506
vn 0.6943 -0.7063 -0.1381
vn 0.9475 -0.2583 -0.1885
vn 0.9148 0.2583 -0.3105
vn 0.6703 0.7063 -0.2275
vn 0.2456 0.9658 -0.0834
vn -0.2456 0.9658 0.0834
vn -0.6703 0.7063 0.2275
vn -0.9148 0.2583 0.3105
vn -0.9148 -0.2583 0.3105
vn -0.6703 -0.7063 0.2275
vn -0.2456 -0.9658 0.0834
vn 0.2456 -0.9658 -0.0834
vn 0.6703 -0.7063 -0.2275
vn 0.9148 -0.2583 -0.3105
vn 0.8664 0.2583 -0.4273
vn 0.6349 0.7063 -0.3131
vn 0.2326 0.9658 -0.1147
vn -0.2326 0.9658 0.1147
vn -0.6349 0.7063 0.3131
vn -0.8664 0.2583 0.4273
vn -0.8664 -0.2583 0.4273
vn -0.6349 -0.7063 0.3131
vn -0.2326 -0.9658 0.1147
vn 0.2326 -0.9658 -0.1147
vn 0.6349 -0.7063 -0.3131
vn 0.8664 -0.2583 -0.4273
vn 0.8033 0.2583 -0.5367
vn 0.5886 0.7063 -0.3933
vn 0.2156 0.9658 -0.1441
vn -0.2156 0.9658 0.1441
vn -0.5886 0.7063 0.3933
vn -0.8033 0.2583 0.5367
vn -0.8033 -0.2583 0.5367
vn -0.5886 -0.7063 0.3933
vn -0.2156 -0.9658 0.1441
vn 0.2156 -0.9658 -0.1441
vn 0.5886 -0.7063 -0.3933
vn 0.8033 -0.2583 -0.5367
vn 0.7263 0.2583 -0.6370
vn 0.5322 0.7063 -0.4667
vn 0.1950 0.9658 -0.1710
vn -0.1950 0.9658 0.1710
vn -0.5322 0.7063 0.4667
vn -0.7263 0.2583 0.6370
vn -0.7263 -0.2583 0.6370
vn -0.5322 -0.7063 0.4667
vn -0.1950 -0.9658 0.1710
vn 0.1950 -0.9658 -0.1710
vn 0.5322 -0.7063 -0.4667
vn 0.7263 -0.2583 -0.6370
vn 0.6370 0.2583 -0.7263
vn 0.4667 0.7063 -0.5322
vn 0.1710 0.9658 -0.1950
vn -0.1710 0.9658 0.1950
vn -0.4667 0.7063 0.5322
vn -0.6370 0.2583 0.7263
vn -0.6370 -0.2583 0.7263
vn -0.4667 -0.7063 0.5322
vn -0.1710 -0.9658 0.1950
vn 0.1710 -0.9658 -0.1950
vn 0.4667 -0.7063 -0.5322
vn 0.6370 -0.2583 -0.7263
vn 0.5367 0.2583 -0.8033
vn 0.3933 0.7063 -0.5886
vn 0.1441 0.9658 -0.2156
vn -0.1441 0.9658 0.2156
vn -0.3933 0.7063 0.5886
vn -0.5367 0.2583 0.8033
vn -0.5367 -0.2583 0.8033
vn -0.3933 -0.7063 0.5886
vn -0.1441 -0.9658 0.2156
vn 0.1441 -0.9658 -0.2156
vn 0.3933 -0.7063 -0.5886
vn 0.5367 -0.2583 -0.8033
vn 0.4273 0.2583 -0.8664
vn 0.3131 0.7063 -0.6349
vn 0.1147 0.9658 -0.2326
vn -0.1147 0.9658 0.2326
vn -0.3131 0.7063 0.6349
vn -0.4273 0.2583 0.8664
vn -0.4273 -0.2583 0.8664
vn -0.3131 -0.7063 0.6349
vn -0.1147 -0.9658 0.2326
vn 0.1147 -0.9658 -0.2326
vn 0.3131 -0.7063 -0.6349
vn 0.4273 -0.2583 -0.8664
vn 0.3105 0.2583 -0.9148
vn 0.2275 0.7063 -0.6703
vn 0.0834 0.9658 -0.2456
vn -0.0834 0.9658 0.2456
vn -0.2275 0.7063 0.6703
vn -0.3105 0.2583 0.9148
vn -0.3105 -0.2583 0.9148
vn -0.2275 -0.7063 0.6703
vn -0.0834 -0.9658 0.2456
vn 0.0834 -0.9658 -0.2456
vn 0.2275 -0.7063 -0.6703
vn 0.3105 -0.2583 -0.9148
vn 0.1885 0.2583 -0.9475
vn 0.1381 0.7063 -0.6943
vn 0.0506 0.9658 -0.2544
vn -0.0506 0.9658 0.2544
vn -0.1381 0.7063 0.6943
vn -0.1885 0.2583 0.9475
vn -0.1885 -0.2583 0.9475
vn -0.1381 -0.7063 0.6943
vn -0.0506 -0.9658 0.2544
vn 0.0506 -0.9658 -0.2544
vn 0.1381 -0.7063 -0.6943
vn 0.1885 -0.2583 -0.9475
vn 0.0463 0.7063 -0.7063
vn 0.0170 0.9658 -0.2588
vn -0.0170 0.9658 0.2588
vn -0.0463 0.7063 0.7063
vn -0.0632 0.2583 0.9640
vn -0.0632 -0.2583 0.9640
vn -0.0463 -0.7063 0.7063
vn -0.0170 -0.9658 0.2588
vn 0.0170 -0.9658 -0.2588
vn 0.0463 -0.7063 -0.7063
vn -0.1381 0.7064 0.6943
vn -0.0463 -0.7063 0.7064
vn 0.0463 -0.7063 -0.7064
vn 0.7063 0.7064 -0.0463
vn -0.7064 -0.7063 0.0463
vn 0.7064 -0.7063 -0.0463
vn 0.6943 0.7064 -0.1381
vn -0.2543 -0.9658 0.0506
vn 0.2543 -0.9658 -0.0506
vn -0.6703 0.7064 0.2275
vn -0.5886 0.7064 0.3933
vn -0.5322 0.7064 0.4667
vn 0.4667 0.7064 -0.5322
vn -0.4667 0.7064 0.5322
vn 0.3933 0.7064 -0.5886
vn -0.3933 0.7064 0.5886
vn 0.0506 -0.9658 -0.2543
vn 0.0463 0.7064 -0.7063
vn -0.3131 0.7064 0.6349
vn 0.2275 0.7064 -0.6703
vn 0.1381 0.7064 -0.6943
vn -0.0506 -0.9658 0.2543
vn -0.0463 0.7064 0.7063
vn 0.8128 0.0000 -0.5825
vn 0.5825 0.0000 -0.8128
vn 0.0000 -1.0000 0.0000
vn 0.0000 0.8988 0.4383
vn 0.8435 -0.5371 0.0000
vn 0.0000 0.5371 -0.8435
vn -0.4383 0.8988 0.0000
vn 0.8435 0.5371 0.0000
vn 0.2636 -0.9279 0.2636
vn 0.0000 -0.5371 -0.8435
vn 0.5595 0.6115 0.5595
vn -0.2636 0.9279 -0.2636
vn -0.5595 0.6115 -0.5595
vn 0.2636 0.9279 0.2636
vn -0.2636 -0.9279 -0.2636
vn -0.9859 0.1674 0.0000
vn 0.0000 0.2021 0.9794
vn 0.9658 -0.2593 0.0000
vn 0.0000 -0.2918 -0.9565
vn -0.9858 -0.1681 0.0000
vn 0.0000 0.2320 -0.9727
vn 0.0000 -0.1413 0.9900
vn 0.9663 0.2572 0.0000
usemtl Material
s off
f 192//1 169//1 160//1 177//1
f 189//1 179//1 164//1 170//1
f 188//1 180//1 165//1 181//1
f 187//1 176//1 163//1 182//1
f 160//1 171//1 184//1 175//1
f 164//1 177//1 185//1 183//1
f 177//1 160//1 175//1 185//1
f 158//1 170//1 186//1 167//1
f 170//1 164//1 183//1 186//1
f 180//1 187//1 182//1 165//1
f 181//2 189//2 208//2 321//2 203//2
f 159//2 176//2 204//2 196//2
f 189//2 170//2 197//2 208//2
f 162//2 168//2 195//2 202//2
f 158//2 172//2 199//2 198//2
f 166//2 157//2 194//2 193//2
f 180//2 188//2 207//2 205//2
f 181//1 165//1 179//1 189//1
f 176//1 190//1 178//1 163//1
f 159//1 173//1 190//1 176//1
f 169//1 191//1 171//1 160//1
f 163//1 178//1 191//1 169//1
f 179//1 192//1 177//1 164//1
f 165//1 182//1 192//1 179//1
f 182//1 163//1 169//1 192//1
f 202//3 195//3 211//3 218//3
f 204//4 206//4 307//4 1061//4 1057//4
f 200//5 193//5 209//5 216//5
f 208//6 197//6 1060//6 1062//6 320//6
f 201//3 202//3 218//3 217//3
f 174//2 162//2 202//2 201//2
f 187//2 180//2 205//2 306//2 206//2
f 170//2 158//2 198//2 197//2
f 161//2 166//2 193//2 200//2
f 176//2 187//2 206//2 204//2
f 188//2 181//2 203//2 207//2
f 172//2 161//2 200//2 199//2
f 168//2 159//2 196//2 195//2
f 157//2 174//2 201//2 194//2
f 1040//2 261//2 1092//2 1091//2
f 217//2 218//2 234//2 233//2
f 221//7 223//7 239//7 237//7 309//7
f 215//8 216//8 232//8 231//8
f 212//9 1057//9 1058//9 228//9
f 1060//7 214//7 230//7 1059//7
f 210//2 217//2 233//2 226//2
f 193//5 194//5 210//5 209//5
f 207//6 203//6 319//6 219//6 223//6
f 198//5 199//5 215//5 214//5
f 195//3 196//3 212//3 211//3
f 194//3 201//3 217//3 210//3
f 197//10 198//10 214//10 1060//10
f 196//11 204//11 1057//11 212//11
f 199//5 200//5 216//5 215//5
f 205//4 207//4 223//4 221//4 305//4
f 226//2 233//2 249//2 242//2
f 227//2 228//2 244//2 243//2
f 230//8 231//8 247//8 246//8
f 239//9 235//9 329//9 251//9 255//9
f 225//8 226//8 242//8 241//8
f 234//2 227//2 243//2 250//2
f 308//2 254//2 1046//2 1045//2
f 216//8 209//8 225//8 232//8
f 314//2 270//2 1094//2 1096//2
f 218//2 211//2 227//2 234//2
f 209//8 210//8 226//8 225//8
f 223//9 219//9 325//9 235//9 239//9
f 214//8 215//8 231//8 230//8
f 211//2 212//2 228//2 227//2
f 250//2 243//2 259//2 266//2
f 220//2 222//2 1081//2 1077//2
f 248//8 241//8 257//8 264//8
f 1034//2 1038//2 1090//2 1089//2
f 249//2 250//2 266//2 265//2
f 1059//7 230//7 246//7 1071//7
f 228//9 1058//9 1069//9 244//9
f 231//8 232//8 248//8 247//8
f 237//7 239//7 255//7 253//7 312//7
f 233//2 234//2 250//2 249//2
f 1075//2 333//2 367//2 364//2
f 232//8 225//8 241//8 248//8
f 1075//2 1072//2 277//2 288//2 333//2
f 265//2 266//2 282//2 281//2
f 269//2 271//2 287//2 285//2
f 263//2 264//2 280//2 279//2
f 260//2 1073//2 284//2 276//2
f 1072//2 262//2 278//2 277//2
f 258//2 265//2 281//2 274//2
f 241//8 242//8 258//8 257//8
f 255//9 251//9 326//9 267//9 271//9
f 246//8 247//8 263//8 262//8
f 243//2 244//2 260//2 259//2
f 242//2 249//2 265//2 258//2
f 1071//7 246//7 262//7 1072//7
f 244//9 1069//9 1073//9 260//9
f 247//8 248//8 264//8 263//8
f 253//7 255//7 271//7 269//7 311//7
f 274//12 281//12 297//12 290//12
f 275//12 276//12 292//12 291//12
f 278//13 279//13 295//13 294//13
f 287//14 283//14 336//14 299//14 303//14
f 273//13 274//13 290//13 289//13
f 282//12 275//12 291//12 298//12
f 284//15 286//15 316//15 302//15 300//15
f 264//2 257//2 273//2 280//2
f 1073//2 1074//2 286//2 284//2
f 266//2 259//2 275//2 282//2
f 257//2 258//2 274//2 273//2
f 271//2 267//2 334//2 283//2 287//2
f 262//2 263//2 279//2 278//2
f 259//2 260//2 276//2 275//2
f 298//1 291//1 302//1 317//1 301//1
f 291//1 292//1 300//1 302//1
f 289//1 303//1 299//1 296//1
f 290//1 297//1 303//1 289//1
f 297//1 298//1 301//1 303//1
f 295//1 304//1 293//1 294//1
f 296//1 299//1 335//1 304//1 295//1
f 277//16 278//16 294//16 293//16
f 276//17 284//17 300//17 292//17
f 279//13 280//13 296//13 295//13
f 285//15 287//15 303//15 301//15 318//15
f 281//12 282//12 298//12 297//12
f 288//14 277//14 293//14 304//14 337//14
f 280//13 273//13 289//13 296//13
f 283//2 334//2 368//2 376//2
f 333//2 288//2 366//2 367//2
f 378//2 367//2 366//2 365//2
f 363//2 364//2 367//2 378//2
f 334//2 267//2 369//2 368//2
f 408//18 420//18 421//18 409//18
f 409//19 421//19 422//19 410//19
f 410//20 422//20 423//20 411//20
f 408//21 419//21 431//21 420//21
f 696//22 708//22 709//22 697//22
f 723//23 735//23 736//23 724//23
f 735//24 747//24 748//24 736//24
f 863//25 875//25 864//25 852//25
f 252//2 236//2 1042//2 1044//2
f 254//2 252//2 1044//2 1046//2
f 220//7 1032//7 1058//7 1057//7
f 1036//9 213//9 1060//9 1059//9
f 222//7 220//7 1057//7 1061//7
f 213//9 224//9 1062//9 1060//9
f 1032//7 1033//7 1063//7 1058//7
f 1035//9 1036//9 1059//9 1064//9
f 224//9 324//9 1065//9 1062//9
f 310//7 222//7 1061//7 1066//7
f 1039//9 327//9 1067//9 1068//9
f 1038//7 1034//7 1069//7 1070//7
f 261//9 1040//9 1071//9 1072//9
f 1040//9 1039//9 1068//9 1071//9
f 268//7 270//7 1074//7 1073//7
f 272//9 261//9 1072//9 1075//9
f 314//7 1038//7 1070//7 1076//7
f 1034//7 268//7 1073//7 1069//7
f 1033//7 310//7 1066//7 1063//7
f 270//7 314//7 1076//7 1074//7
f 324//9 1035//9 1064//9 1065//9
f 327//9 272//9 1075//9 1067//9
f 1078//2 1077//2 1137//2 1138//2
f 1081//2 1086//2 1106//2 1101//2
f 1090//2 1096//2 1116//2 1110//2
f 1085//2 1082//2 1102//2 1105//2
f 224//2 213//2 1080//2 1082//2
f 1035//2 324//2 1085//2 1084//2
f 1039//2 1040//2 1091//2 1088//2
f 1033//2 1032//2 1078//2 1083//2
f 272//2 327//2 1087//2 1095//2
f 270//2 268//2 1093//2 1094//2
f 1036//2 1035//2 1084//2 1079//2
f 261//2 272//2 1095//2 1092//2
f 324//2 224//2 1082//2 1085//2
f 1038//2 314//2 1096//2 1090//2
f 222//2 310//2 1086//2 1081//2
f 1032//2 220//2 1077//2 1078//2
f 268//2 1034//2 1089//2 1093//2
f 327//2 1039//2 1088//2 1087//2
f 213//2 1036//2 1079//2 1080//2
f 310//2 1033//2 1083//2 1086//2
f 1108//26 1141//26 1149//26 1128//26
f 1093//2 1089//2 1144//2 1143//2
f 1087//2 1088//2 1108//2 1107//2
f 1080//2 1079//2 1139//2 1140//2
f 1086//2 1083//2 1103//2 1106//2
f 1089//2 1090//2 1110//2 1144//2
f 1077//2 1081//2 1101//2 1137//2
f 1096//2 1094//2 1114//2 1116//2
f 1091//2 1092//2 1142//2 1141//2
f 1082//2 1080//2 1140//2 1102//2
f 1084//2 1085//2 1105//2 1104//2
f 1088//2 1091//2 1141//2 1108//2
f 1083//2 1078//2 1138//2 1103//2
f 1095//2 1087//2 1107//2 1115//2
f 1094//2 1093//2 1143//2 1114//2
f 1079//2 1084//2 1104//2 1139//2
f 1092//2 1095//2 1115//2 1142//2
f 1115//27 1107//27 1127//27 1135//27
f 1110//28 1116//28 1136//28 1130//28
f 1107//27 1108//27 1128//27 1127//27
f 1144//29 1110//29 1130//29 1152//29
f 1116//28 1114//28 1134//28 1136//28
f 1133//30 1113//30 1159//30 1167//30
f 1112//31 1132//31 1166//31 1158//31
f 1132//32 1131//32 1165//32 1166//32
f 1129//33 1133//33 1167//33 1168//33
usemtl Material.001
f 1//18 13//18 14//18 2//18
f 2//19 14//19 15//19 3//19
f 3//20 15//20 16//20 4//20
f 4//23 16//23 17//23 5//23
f 5//34 17//34 18//34 6//34
f 6//35 18//35 19//35 7//35
f 7//36 19//36 20//36 8//36
f 8//37 20//37 21//37 9//37
f 9//38 21//38 22//38 10//38
f 10//39 22//39 23//39 11//39
f 11//40 23//40 24//40 12//40
f 1//21 12//21 24//21 13//21
f 13//41 25//41 26//41 14//41
f 14//42 26//42 27//42 15//42
f 15//43 27//43 28//43 16//43
f 16//24 28//24 29//24 17//24
f 17//44 29//44 30//44 18//44
f 18//45 30//45 31//45 19//45
f 19//46 31//46 32//46 20//46
f 20//47 32//47 33//47 21//47
f 21//48 33//48 34//48 22//48
f 22//49 34//49 35//49 23//49
f 23//50 35//50 36//50 24//50
f 24//51 36//51 25//51 13//51
f 25//52 37//52 38//52 26//52
f 26//53 38//53 39//53 27//53
f 27//54 39//54 40//54 28//54
f 28//55 40//55 41//55 29//55
f 29//56 41//56 42//56 30//56
f 30//57 42//57 43//57 31//57
f 31//58 43//58 44//58 32//58
f 32//59 44//59 45//59 33//59
f 33//60 45//60 46//60 34//60
f 34//61 46//61 47//61 35//61
f 35//62 47//62 48//62 36//62
f 36//63 48//63 37//63 25//63
f 37//64 49//64 50//64 38//64
f 38//65 50//65 51//65 39//65
f 39//66 51//66 52//66 40//66
f 40//67 52//67 53//67 41//67
f 41//68 53//68 54//68 42//68
f 42//69 54//69 55//69 43//69
f 43//70 55//70 56//70 44//70
f 44//71 56//71 57//71 45//71
f 45//72 57//72 58//72 46//72
f 46//73 58//73 59//73 47//73
f 47//74 59//74 60//74 48//74
f 48//75 60//75 49//75 37//75
f 49//76 61//76 62//76 50//76
f 50//77 62//77 63//77 51//77
f 51//78 63//78 64//78 52//78
f 52//79 64//79 65//79 53//79
f 53//80 65//80 66//80 54//80
f 54//81 66//81 67//81 55//81
f 55//82 67//82 68//82 56//82
f 56//83 68//83 69//83 57//83
f 57//84 69//84 70//84 58//84
f 58//85 70//85 71//85 59//85
f 59//86 71//86 72//86 60//86
f 60//87 72//87 61//87 49//87
f 61//88 73//88 74//88 62//88
f 62//89 74//89 75//89 63//89
f 63//90 75//90 76//90 64//90
f 64//91 76//91 77//91 65//91
f 65//92 77//92 78//92 66//92
f 66//93 78//93 79//93 67//93
f 67//94 79//94 80//94 68//94
f 68//95 80//95 81//95 69//95
f 69//96 81//96 82//96 70//96
f 70//97 82//97 83//97 71//97
f 71//98 83//98 84//98 72//98
f 72//99 84//99 73//99 61//99
f 73//100 85//100 86//100 74//100
f 74//101 86//101 87//101 75//101
f 75//102 87//102 88//102 76//102
f 76//103 88//103 89//103 77//103
f 77//104 89//104 90//104 78//104
f 78//105 90//105 91//105 79//105
f 79//106 91//106 92//106 80//106
f 80//107 92//107 93//107 81//107
f 81//108 93//108 94//108 82//108
f 82//109 94//109 95//109 83//109
f 83//110 95//110 96//110 84//110
f 84//111 96//111 85//111 73//111
f 85//112 97//112 98//112 86//112
f 86//113 98//113 99//113 87//113
f 87//114 99//114 100//114 88//114
f 88//115 100//115 101//115 89//115
f 89//116 101//116 102//116 90//116
f 90//117 102//117 103//117 91//117
f 91//118 103//118 104//118 92//118
f 92//119 104//119 105//119 93//119
f 93//120 105//120 106//120 94//120
f 94//121 106//121 107//121 95//121
f 95//122 107//122 108//122 96//122
f 96//123 108//123 97//123 85//123
f 97//124 109//124 110//124 98//124
f 98//125 110//125 111//125 99//125
f 99//126 111//126 112//126 100//126
f 100//127 112//127 113//127 101//127
f 101//128 113//128 114//128 102//128
f 102//129 114//129 115//129 103//129
f 103//130 115//130 116//130 104//130
f 104//131 116//131 117//131 105//131
f 105//132 117//132 118//132 106//132
f 106//133 118//133 119//133 107//133
f 107//134 119//134 120//134 108//134
f 108//135 120//135 109//135 97//135
f 109//136 121//136 122//136 110//136
f 110//137 122//137 123//137 111//137
f 111//138 123//138 124//138 112//138
f 112//139 124//139 125//139 113//139
f 113//140 125//140 126//140 114//140
f 114//141 126//141 127//141 115//141
f 115//142 127//142 128//142 116//142
f 116//143 128//143 129//143 117//143
f 117//144 129//144 130//144 118//144
f 118//145 130//145 131//145 119//145
f 119//146 131//146 132//146 120//146
f 120//147 132//147 121//147 109//147
f 121//148 133//148 134//148 122//148
f 122//149 134//149 135//149 123//149
f 123//150 135//150 136//150 124//150
f 124//151 136//151 137//151 125//151
f 125//152 137//152 138//152 126//152
f 126//153 138//153 139//153 127//153
f 127//154 139//154 140//154 128//154
f 128//155 140//155 141//155 129//155
f 129//156 141//156 142//156 130//156
f 130//157 142//157 143//157 131//157
f 131//158 143//158 144//158 132//158
f 132//159 144//159 133//159 121//159
f 133//22 145//22 146//22 134//22
f 134//160 146//160 147//160 135//160
f 135//161 147//161 148//161 136//161
f 136//162 148//162 149//162 137//162
f 137//163 149//163 150//163 138//163
f 138//164 150//164 151//164 139//164
f 139//165 151//165 152//165 140//165
f 140//166 152//166 153//166 141//166
f 141//167 153//167 154//167 142//167
f 142//168 154//168 155//168 143//168
f 143//169 155//169 156//169 144//169
f 144//25 156//25 145//25 133//25
f 411//23 423//23 424//23 412//23
f 412//34 424//34 425//34 413//34
f 413//35 425//35 426//35 414//35
f 414//36 426//36 427//36 415//36
f 415//37 427//37 428//37 416//37
f 416//38 428//38 429//38 417//38
f 417//39 429//39 430//39 418//39
f 418//40 430//40 431//40 419//40
f 420//41 432//41 433//41 421//41
f 421//42 433//42 434//42 422//42
f 422//43 434//43 435//43 423//43
f 423//24 435//24 436//24 424//24
f 424//44 436//44 437//44 425//44
f 425//45 437//45 438//45 426//45
f 426//46 438//46 439//46 427//46
f 427//47 439//47 440//47 428//47
f 428//48 440//48 441//48 429//48
f 429//49 441//49 442//49 430//49
f 430//50 442//50 443//50 431//50
f 431//51 443//51 432//51 420//51
f 432//52 444//52 445//52 433//52
f 433//53 445//53 446//53 434//53
f 434//54 446//54 447//54 435//54
f 435//55 447//55 448//55 436//55
f 436//56 448//56 449//56 437//56
f 437//57 449//57 450//57 438//57
f 438//58 450//58 451//58 439//58
f 439//59 451//59 452//59 440//59
f 440//60 452//60 453//60 441//60
f 441//61 453//61 454//61 442//61
f 442//62 454//62 455//62 443//62
f 443//63 455//63 444//63 432//63
f 444//64 456//64 457//64 445//64
f 445//65 457//65 458//65 446//65
f 446//66 458//66 459//66 447//66
f 447//67 459//67 460//67 448//67
f 448//68 460//68 461//68 449//68
f 449//69 461//69 462//69 450//69
f 450//70 462//70 463//70 451//70
f 451//71 463//71 464//71 452//71
f 452//72 464//72 465//72 453//72
f 453//73 465//73 466//73 454//73
f 454//74 466//74 467//74 455//74
f 455//75 467//75 456//75 444//75
f 456//76 468//76 469//76 457//76
f 457//77 469//77 470//77 458//77
f 458//78 470//78 471//78 459//78
f 459//79 471//79 472//79 460//79
f 460//80 472//80 473//80 461//80
f 461//81 473//81 474//81 462//81
f 462//82 474//82 475//82 463//82
f 463//83 475//83 476//83 464//83
f 464//84 476//84 477//84 465//84
f 465//85 477//85 478//85 466//85
f 466//86 478//86 479//86 467//86
f 467//87 479//87 468//87 456//87
f 468//88 480//88 481//88 469//88
f 469//89 481//89 482//89 470//89
f 470//90 482//90 483//90 471//90
f 471//91 483//91 484//91 472//91
f 472//92 484//92 485//92 473//92
f 473//93 485//93 486//93 474//93
f 474//94 486//94 487//94 475//94
f 475//95 487//95 488//95 476//95
f 476//96 488//96 489//96 477//96
f 477//97 489//97 490//97 478//97
f 478//98 490//98 491//98 479//98
f 479//99 491//99 480//99 468//99
f 480//100 492//100 493//100 481//100
f 481//101 493//101 494//101 482//101
f 482//102 494//102 495//102 483//102
f 483//103 495//103 496//103 484//103
f 484//104 496//104 497//104 485//104
f 485//105 497//105 498//105 486//105
f 486//106 498//106 499//106 487//106
f 487//107 499//107 500//107 488//107
f 488//108 500//108 501//108 489//108
f 489//109 501//109 502//109 490//109
f 490//110 502//110 503//110 491//110
f 491//111 503//111 492//111 480//111
f 492//112 504//112 505//112 493//112
f 493//113 505//113 506//113 494//113
f 494//114 506//114 507//114 495//114
f 495//115 507//115 508//115 496//115
f 496//116 508//116 509//116 497//116
f 497//117 509//117 510//117 498//117
f 498//118 510//118 511//118 499//118
f 499//119 511//119 512//119 500//119
f 500//120 512//120 513//120 501//120
f 501//121 513//121 514//121 502//121
f 502//122 514//122 515//122 503//122
f 503//123 515//123 504//123 492//123
f 504//124 516//124 517//124 505//124
f 505//125 517//125 518//125 506//125
f 506//126 518//126 519//126 507//126
f 507//127 519//127 520//127 508//127
f 508//128 520//128 521//128 509//128
f 509//129 521//129 522//129 510//129
f 510//130 522//130 523//130 511//130
f 511//131 523//131 524//131 512//131
f 512//132 524//132 525//132 513//132
f 513//133 525//133 526//133 514//133
f 514//134 526//134 527//134 515//134
f 515//135 527//135 516//135 504//135
f 516//136 528//136 529//136 517//136
f 517//137 529//137 530//137 518//137
f 518//138 530//138 531//138 519//138
f 519//139 531//139 532//139 520//139
f 520//140 532//140 533//140 521//140
f 521//141 533//141 534//141 522//141
f 522//142 534//142 535//142 523//142
f 523//143 535//143 536//143 524//143
f 524//144 536//144 537//144 525//144
f 525//145 537//145 538//145 526//145
f 526//146 538//146 539//146 527//146
f 527//147 539//147 528//147 516//147
f 528//148 540//148 541//148 529//148
f 529//149 541//149 542//149 530//149
f 530//150 542//150 543//150 531//150
f 531//151 543//151 544//151 532//151
f 532//152 544//152 545//152 533//152
f 533//153 545//153 546//153 534//153
f 534//154 546//154 547//154 535//154
f 535//155 547//155 548//155 536//155
f 536//156 548//156 549//156 537//156
f 537//157 549//157 550//157 538//157
f 538//158 550//158 551//158 539//158
f 539//159 551//159 540//159 528//159
f 540//22 552//22 553//22 541//22
f 541//160 553//160 554//160 542//160
f 542//161 554//161 555//161 543//161
f 543//162 555//162 556//162 544//162
f 544//163 556//163 557//163 545//163
f 545//164 557//164 558//164 546//164
f 546//165 558//165 559//165 547//165
f 547//166 559//166 560//166 548//166
f 548//167 560//167 561//167 549//167
f 549//168 561//168 562//168 550//168
f 550//169 562//169 563//169 551//169
f 551//25 563//25 552//25 540//25
f 564//18 576//18 577//18 565//18
f 565//19 577//19 578//19 566//19
f 566//20 578//20 579//20 567//20
f 567//23 579//23 580//23 568//23
f 568//34 580//34 581//34 569//34
f 569//35 581//35 582//35 570//35
f 570//36 582//36 583//36 571//36
f 571//37 583//37 584//37 572//37
f 572//38 584//38 585//38 573//38
f 573//39 585//39 586//39 574//39
f 574//40 586//40 587//40 575//40
f 564//21 575//21 587//21 576//21
f 576//41 588//41 589//41 577//41
f 577//42 589//42 590//42 578//42
f 578//43 590//43 591//43 579//43
f 579//24 591//24 592//24 580//24
f 580//44 592//44 593//44 581//44
f 581//45 593//45 594//45 582//45
f 582//46 594//46 595//46 583//46
f 583//47 595//47 596//47 584//47
f 584//48 596//48 597//48 585//48
f 585//49 597//49 598//49 586//49
f 586//50 598//50 599//50 587//50
f 587//51 599//51 588//51 576//51
f 588//52 600//52 601//52 589//52
f 589//53 601//53 602//53 590//53
f 590//54 602//54 603//54 591//54
f 591//55 603//55 604//55 592//55
f 592//56 604//56 605//56 593//56
f 593//57 605//57 606//57 594//57
f 594//58 606//58 607//58 595//58
f 595//59 607//59 608//59 596//59
f 596//60 608//60 609//60 597//60
f 597//61 609//61 610//61 598//61
f 598//62 610//62 611//62 599//62
f 599//63 611//63 600//63 588//63
f 600//64 612//64 613//64 601//64
f 601//65 613//65 614//65 602//65
f 602//66 614//66 615//66 603//66
f 603//67 615//67 616//67 604//67
f 604//68 616//68 617//68 605//68
f 605//69 617//69 618//69 606//69
f 606//70 618//70 619//70 607//70
f 607//71 619//71 620//71 608//71
f 608//72 620//72 621//72 609//72
f 609//73 621//73 622//73 610//73
f 610//74 622//74 623//74 611//74
f 611//75 623//75 612//75 600//75
f 612//76 624//76 625//76 613//76
f 613//77 625//77 626//77 614//77
f 614//78 626//78 627//78 615//78
f 615//79 627//79 628//79 616//79
f 616//80 628//80 629//80 617//80
f 617//81 629//81 630//81 618//81
f 618//82 630//82 631//82 619//82
f 619//83 631//83 632//83 620//83
f 620//84 632//84 633//84 621//84
f 621//85 633//85 634//85 622//85
f 622//86 634//86 635//86 623//86
f 623//87 635//87 624//87 612//87
f 624//88 636//88 637//88 625//88
f 625//89 637//89 638//89 626//89
f 626//90 638//90 639//90 627//90
f 627//91 639//91 640//91 628//91
f 628//92 640//92 641//92 629//92
f 629//93 641//93 642//93 630//93
f 630//94 642//94 643//94 631//94
f 631//95 643//95 644//95 632//95
f 632//96 644//96 645//96 633//96
f 633//97 645//97 646//97 634//97
f 634//98 646//98 647//98 635//98
f 635//99 647//99 636//99 624//99
f 636//100 648//100 649//100 637//100
f 637//101 649//101 650//101 638//101
f 638//102 650//102 651//102 639//102
f 639//103 651//103 652//103 640//103
f 640//104 652//104 653//104 641//104
f 641//105 653//105 654//105 642//105
f 642//106 654//106 655//106 643//106
f 643//107 655//107 656//107 644//107
f 644//108 656//108 657//108 645//108
f 645//109 657//109 658//109 646//109
f 646//110 658//110 659//110 647//110
f 647//111 659//111 648//111 636//111
f 648//112 660//112 661//112 649//112
f 649//113 661//113 662//113 650//113
f 650//114 662//114 663//114 651//114
f 651//115 663//115 664//115 652//115
f 652//116 664//116 665//116 653//116
f 653//117 665//117 666//117 654//117
f 654//118 666//118 667//118 655//118
f 655//119 667//119 668//119 656//119
f 656//120 668//120 669//120 657//120
f 657//121 669//121 670//121 658//121
f 658//122 670//122 671//122 659//122
f 659//123 671//123 660//123 648//123
f 660//124 672//124 673//124 661//124
f 661//125 673//125 674//125 662//125
f 662//126 674//126 675//126 663//126
f 663//127 675//127 676//127 664//127
f 664//128 676//128 677//128 665//128
f 665//129 677//129 678//129 666//129
f 666//130 678//130 679//130 667//130
f 667//131 679//131 680//131 668//131
f 668//132 680//132 681//132 669//132
f 669//133 681//133 682//133 670//133
f 670//134 682//134 683//134 671//134
f 671//135 683//135 672//135 660//135
f 672//136 684//136 685//136 673//136
f 673//137 685//137 686//137 674//137
f 674//138 686//138 687//138 675//138
f 675//139 687//139 688//139 676//139
f 676//140 688//140 689//140 677//140
f 677//141 689//141 690//141 678//141
f 678//142 690//142 691//142 679//142
f 679//143 691//143 692//143 680//143
f 680//144 692//144 693//144 681//144
f 681//145 693//145 694//145 682//145
f 682//146 694//146 695//146 683//146
f 683//147 695//147 684//147 672//147
f 684//148 696//148 697//148 685//148
f 685//149 697//149 698//149 686//149
f 686//150 698//150 699//150 687//150
f 687//151 699//151 700//151 688//151
f 688//170 700//170 701//170 689//170
f 689//153 701//153 702//153 690//153
f 690//154 702//154 703//154 691//154
f 691//155 703//155 704//155 692//155
f 692//156 704//156 705//156 693//156
f 693//157 705//157 706//157 694//157
f 694//158 706//158 707//158 695//158
f 695//159 707//159 696//159 684//159
f 697//160 709//160 710//160 698//160
f 698//161 710//161 711//161 699//161
f 699//162 711//162 712//162 700//162
f 700//163 712//163 713//163 701//163
f 701//164 713//164 714//164 702//164
f 702//165 714//165 715//165 703//165
f 703//171 715//171 716//171 704//171
f 704//167 716//167 717//167 705//167
f 705//168 717//168 718//168 706//168
f 706//172 718//172 719//172 707//172
f 707//25 719//25 708//25 696//25
f 720//18 732//18 733//18 721//18
f 721//173 733//173 734//173 722//173
f 722//20 734//20 735//20 723//20
f 724//34 736//34 737//34 725//34
f 725//35 737//35 738//35 726//35
f 726//36 738//36 739//36 727//36
f 727//174 739//174 740//174 728//174
f 728//38 740//38 741//38 729//38
f 729//39 741//39 742//39 730//39
f 730//175 742//175 743//175 731//175
f 720//21 731//21 743//21 732//21
f 732//41 744//41 745//41 733//41
f 733//176 745//176 746//176 734//176
f 734//43 746//43 747//43 735//43
f 736//44 748//44 749//44 737//44
f 737//45 749//45 750//45 738//45
f 738//46 750//46 751//46 739//46
f 739//47 751//47 752//47 740//47
f 740//177 752//177 753//177 741//177
f 741//178 753//178 754//178 742//178
f 742//50 754//50 755//50 743//50
f 743//51 755//51 744//51 732//51
f 744//52 756//52 757//52 745//52
f 745//53 757//53 758//53 746//53
f 746//54 758//54 759//54 747//54
f 747//55 759//55 760//55 748//55
f 748//179 760//179 761//179 749//179
f 749//57 761//57 762//57 750//57
f 750//58 762//58 763//58 751//58
f 751//59 763//59 764//59 752//59
f 752//60 764//60 765//60 753//60
f 753//61 765//61 766//61 754//61
f 754//62 766//62 767//62 755//62
f 755//63 767//63 756//63 744//63
f 756//64 768//64 769//64 757//64
f 757//65 769//65 770//65 758//65
f 758//66 770//66 771//66 759//66
f 759//67 771//67 772//67 760//67
f 760//68 772//68 773//68 761//68
f 761//69 773//69 774//69 762//69
f 762//70 774//70 775//70 763//70
f 763//71 775//71 776//71 764//71
f 764//72 776//72 777//72 765//72
f 765//73 777//73 778//73 766//73
f 766//74 778//74 779//74 767//74
f 767//75 779//75 768//75 756//75
f 768//76 780//76 781//76 769//76
f 769//77 781//77 782//77 770//77
f 770//78 782//78 783//78 771//78
f 771//79 783//79 784//79 772//79
f 772//180 784//180 785//180 773//180
f 773//81 785//81 786//81 774//81
f 774//82 786//82 787//82 775//82
f 775//83 787//83 788//83 776//83
f 776//84 788//84 789//84 777//84
f 777//85 789//85 790//85 778//85
f 778//86 790//86 791//86 779//86
f 779//87 791//87 780//87 768//87
f 780//88 792//88 793//88 781//88
f 781//89 793//89 794//89 782//89
f 782//90 794//90 795//90 783//90
f 783//91 795//91 796//91 784//91
f 784//181 796//181 797//181 785//181
f 785//93 797//93 798//93 786//93
f 786//94 798//94 799//94 787//94
f 787//95 799//95 800//95 788//95
f 788//96 800//96 801//96 789//96
f 789//97 801//97 802//97 790//97
f 790//98 802//98 803//98 791//98
f 791//99 803//99 792//99 780//99
f 792//100 804//100 805//100 793//100
f 793//182 805//182 806//182 794//182
f 794//102 806//102 807//102 795//102
f 795//103 807//103 808//103 796//103
f 796//183 808//183 809//183 797//183
f 797//105 809//105 810//105 798//105
f 798//106 810//106 811//106 799//106
f 799//107 811//107 812//107 800//107
f 800//108 812//108 813//108 801//108
f 801//109 813//109 814//109 802//109
f 802//110 814//110 815//110 803//110
f 803//111 815//111 804//111 792//111
f 804//112 816//112 817//112 805//112
f 805//184 817//184 818//184 806//184
f 806//114 818//114 819//114 807//114
f 807//115 819//115 820//115 808//115
f 808//185 820//185 821//185 809//185
f 809//117 821//117 822//117 810//117
f 810//118 822//118 823//118 811//118
f 811//119 823//119 824//119 812//119
f 812//120 824//120 825//120 813//120
f 813//121 825//121 826//121 814//121
f 814//122 826//122 827//122 815//122
f 815//123 827//123 816//123 804//123
f 816//124 828//124 829//124 817//124
f 817//125 829//125 830//125 818//125
f 818//126 830//126 831//126 819//126
f 819//127 831//127 832//127 820//127
f 820//128 832//128 833//128 821//128
f 821//129 833//129 834//129 822//129
f 822//130 834//130 835//130 823//130
f 823//131 835//131 836//131 824//131
f 824//132 836//132 837//132 825//132
f 825//133 837//133 838//133 826//133
f 826//134 838//134 839//134 827//134
f 827//135 839//135 828//135 816//135
f 828//136 840//136 841//136 829//136
f 829//137 841//137 842//137 830//137
f 830//138 842//138 843//138 831//138
f 831//139 843//139 844//139 832//139
f 832//140 844//140 845//140 833//140
f 833//141 845//141 846//141 834//141
f 834//142 846//142 847//142 835//142
f 835//143 847//143 848//143 836//143
f 836//144 848//144 849//144 837//144
f 837//145 849//145 850//145 838//145
f 838//146 850//146 851//146 839//146
f 839//147 851//147 840//147 828//147
f 840//148 852//148 853//148 841//148
f 841//149 853//149 854//149 842//149
f 842//150 854//150 855//150 843//150
f 843//151 855//151 856//151 844//151
f 844//170 856//170 857//170 845//170
f 845//153 857//153 858//153 846//153
f 846//154 858//154 859//154 847//154
f 847//155 859//155 860//155 848//155
f 848//156 860//156 861//156 849//156
f 849//186 861//186 862//186 850//186
f 850//158 862//158 863//158 851//158
f 851//159 863//159 852//159 840//159
f 852//22 864//22 865//22 853//22
f 853//187 865//187 866//187 854//187
f 854//161 866//161 867//161 855//161
f 855//162 867//162 868//162 856//162
f 856//163 868//163 869//163 857//163
f 857//164 869//164 870//164 858//164
f 858//165 870//165 871//165 859//165
f 859//171 871//171 872//171 860//171
f 860//167 872//167 873//167 861//167
f 861//168 873//168 874//168 862//168
f 862//172 874//172 875//172 863//172
f 876//18 888//18 889//18 877//18
f 877//173 889//173 890//173 878//173
f 878//20 890//20 891//20 879//20
f 879//23 891//23 892//23 880//23
f 880//34 892//34 893//34 881//34
f 881//35 893//35 894//35 882//35
f 882//36 894//36 895//36 883//36
f 883//174 895//174 896//174 884//174
f 884//38 896//38 897//38 885//38
f 885//39 897//39 898//39 886//39
f 886//175 898//175 899//175 887//175
f 876//21 887//21 899//21 888//21
f 888//41 900//41 901//41 889//41
f 889//176 901//176 902//176 890//176
f 890//43 902//43 903//43 891//43
f 891//24 903//24 904//24 892//24
f 892//44 904//44 905//44 893//44
f 893//45 905//45 906//45 894//45
f 894//46 906//46 907//46 895//46
f 895//47 907//47 908//47 896//47
f 896//177 908//177 909//177 897//177
f 897//178 909//178 910//178 898//178
f 898//50 910//50 911//50 899//50
f 899//51 911//51 900//51 888//51
f 900//52 912//52 913//52 901//52
f 901//53 913//53 914//53 902//53
f 902//54 914//54 915//54 903//54
f 903//55 915//55 916//55 904//55
f 904//179 916//179 917//179 905//179
f 905//57 917//57 918//57 906//57
f 906//58 918//58 919//58 907//58
f 907//59 919//59 920//59 908//59
f 908//60 920//60 921//60 909//60
f 909//61 921//61 922//61 910//61
f 910//62 922//62 923//62 911//62
f 911//63 923//63 912//63 900//63
f 912//64 924//64 925//64 913//64
f 913//65 925//65 926//65 914//65
f 914//66 926//66 927//66 915//66
f 915//67 927//67 928//67 916//67
f 916//68 928//68 929//68 917//68
f 917//69 929//69 930//69 918//69
f 918//70 930//70 931//70 919//70
f 919//71 931//71 932//71 920//71
f 920//72 932//72 933//72 921//72
f 921//73 933//73 934//73 922//73
f 922//74 934//74 935//74 923//74
f 923//75 935//75 924//75 912//75
f 924//76 936//76 937//76 925//76
f 925//77 937//77 938//77 926//77
f 926//78 938//78 939//78 927//78
f 927//79 939//79 940//79 928//79
f 928//180 940//180 941//180 929//180
f 929//81 941//81 942//81 930//81
f 930//82 942//82 943//82 931//82
f 931//83 943//83 944//83 932//83
f 932//84 944//84 945//84 933//84
f 933//85 945//85 946//85 934//85
f 934//86 946//86 947//86 935//86
f 935//87 947//87 936//87 924//87
f 936//88 948//88 949//88 937//88
f 937//89 949//89 950//89 938//89
f 938//90 950//90 951//90 939//90
f 939//91 951//91 952//91 940//91
f 940//181 952//181 953//181 941//181
f 941//93 953//93 954//93 942//93
f 942//94 954//94 955//94 943//94
f 943//95 955//95 956//95 944//95
f 944//96 956//96 957//96 945//96
f 945//97 957//97 958//97 946//97
f 946//98 958//98 959//98 947//98
f 947//99 959//99 948//99 936//99
f 948//100 960//100 961//100 949//100
f 949//182 961//182 962//182 950//182
f 950//102 962//102 963//102 951//102
f 951//103 963//103 964//103 952//103
f 952//183 964//183 965//183 953//183
f 953//105 965//105 966//105 954//105
f 954//106 966//106 967//106 955//106
f 955//107 967//107 968//107 956//107
f 956//108 968//108 969//108 957//108
f 957//109 969//109 970//109 958//109
f 958//110 970//110 971//110 959//110
f 959//111 971//111 960//111 948//111
f 960//112 972//112 973//112 961//112
f 961//113 973//113 974//113 962//113
f 962//114 974//114 975//114 963//114
f 963//115 975//115 976//115 964//115
f 964//116 976//116 977//116 965//116
f 965//117 977//117 978//117 966//117
f 966//118 978//118 979//118 967//118
f 967//119 979//119 980//119 968//119
f 968//120 980//120 981//120 969//120
f 969//121 981//121 982//121 970//121
f 970//122 982//122 983//122 971//122
f 971//123 983//123 972//123 960//123
f 972//124 984//124 985//124 973//124
f 973//125 985//125 986//125 974//125
f 974//126 986//126 987//126 975//126
f 975//127 987//127 988//127 976//127
f 976//188 988//188 989//188 977//188
f 977//129 989//129 990//129 978//129
f 978//130 990//130 991//130 979//130
f 979//131 991//131 992//131 980//131
f 980//132 992//132 993//132 981//132
f 981//133 993//133 994//133 982//133
f 982//134 994//134 995//134 983//134
f 983//135 995//135 984//135 972//135
f 984//136 996//136 997//136 985//136
f 985//189 997//189 998//189 986//189
f 986//138 998//138 999//138 987//138
f 987//139 999//139 1000//139 988//139
f 988//140 1000//140 1001//140 989//140
f 989//141 1001//141 1002//141 990//141
f 990//142 1002//142 1003//142 991//142
f 991//143 1003//143 1004//143 992//143
f 992//144 1004//144 1005//144 993//144
f 993//145 1005//145 1006//145 994//145
f 994//146 1006//146 1007//146 995//146
f 995//147 1007//147 996//147 984//147
f 996//148 1008//148 1009//148 997//148
f 997//190 1009//190 1010//190 998//190
f 998//150 1010//150 1011//150 999//150
f 999//151 1011//151 1012//151 1000//151
f 1000//152 1012//152 1013//152 1001//152
f 1001//153 1013//153 1014//153 1002//153
f 1002//154 1014//154 1015//154 1003//154
f 1003//155 1015//155 1016//155 1004//155
f 1004//191 1016//191 1017//191 1005//191
f 1005//157 1017//157 1018//157 1006//157
f 1006//158 1018//158 1019//158 1007//158
f 1007//159 1019//159 1008//159 996//159
f 1008//22 1020//22 1021//22 1009//22
f 1009//160 1021//160 1022//160 1010//160
f 1010//161 1022//161 1023//161 1011//161
f 1011//162 1023//162 1024//162 1012//162
f 1012//192 1024//192 1025//192 1013//192
f 1013//164 1025//164 1026//164 1014//164
f 1014//165 1026//165 1027//165 1015//165
f 1015//171 1027//171 1028//171 1016//171
f 1016//167 1028//167 1029//167 1017//167
f 1017//168 1029//168 1030//168 1018//168
f 1018//172 1030//172 1031//172 1019//172
f 1019//25 1031//25 1020//25 1008//25
f 1047//7 1048//7 1050//7 1051//7 1049//7
f 1052//9 1053//9 1055//9 1054//9 1056//9
f 1154//193 1153//193 1161//193 1162//193
f 1159//193 1160//193 1168//193 1167//193
f 1156//194 1155//194 1163//194 1164//194
f 1157//194 1158//194 1166//194 1165//194
usemtl Material.002
f 330//7 240//7 1052//7 1056//7
f 238//7 236//7 1058//7 1063//7
f 236//7 252//7 1069//7 1058//7
f 229//9 240//9 1064//9 1059//9
f 254//7 308//7 1037//7 1070//7
f 252//7 254//7 1070//7 1069//7
f 256//9 245//9 1071//9 1068//9
f 245//9 229//9 1059//9 1071//9
f 240//9 330//9 1041//9 1064//9
f 308//7 238//7 1063//7 1037//7
f 330//9 256//9 1068//9 1041//9
f 1046//195 1044//195 1049//195 1051//195
f 238//2 308//2 1045//2 1043//2
f 236//2 238//2 1043//2 1042//2
f 1044//8 1042//8 1047//8 1049//8
f 1043//9 1045//9 1050//9 1048//9
f 1045//9 1046//9 1051//9 1050//9
f 1042//1 1043//1 1048//1 1047//1
f 245//195 256//195 1054//195 1055//195
f 229//2 245//2 1055//2 1053//2
f 240//1 229//1 1053//1 1052//1
f 256//7 330//7 1056//7 1054//7
f 1103//196 1138//196 1146//196 1123//196
f 1104//27 1105//27 1125//27 1124//27
f 1102//197 1140//197 1148//197 1122//197
f 1122//9 1148//9 1147//9 1124//9 1125//9
f 1145//7 1121//7 1126//7 1123//7 1146//7
f 1152//7 1130//7 1136//7 1134//7 1151//7
f 1128//9 1149//9 1150//9 1135//9 1127//9
f 1114//198 1143//198 1151//198 1134//198
f 1139//199 1104//199 1124//199 1147//199
f 1142//200 1115//200 1135//200 1150//200
f 1105//27 1102//27 1122//27 1125//27
f 1101//28 1106//28 1126//28 1121//28
f 1119//32 1120//32 1164//32 1163//32
f 1099//201 1119//201 1163//201 1155//201
f 1117//33 1118//33 1162//33 1161//33
f 1106//28 1103//28 1123//28 1126//28
f 1137//202 1101//202 1121//202 1145//202
f 1097//193 1098//193 1138//193 1137//193
f 1099//194 1100//194 1140//194 1139//194
f 1112//194 1111//194 1141//194 1142//194
f 1109//193 1113//193 1143//193 1144//193
f 1118//193 1117//193 1145//193 1146//193
f 1120//194 1119//194 1147//194 1148//194
f 1131//194 1132//194 1150//194 1149//194
f 1133//193 1129//193 1152//193 1151//193
f 1100//194 1120//194 1148//194 1140//194
f 1111//194 1131//194 1149//194 1141//194
f 1098//193 1118//193 1146//193 1138//193
f 1113//193 1133//193 1151//193 1143//193
f 1119//194 1099//194 1139//194 1147//194
f 1132//194 1112//194 1142//194 1150//194
f 1117//193 1097//193 1137//193 1145//193
f 1129//193 1109//193 1144//193 1152//193
f 1097//203 1117//203 1161//203 1153//203
f 1098//32 1097//32 1153//32 1154//32
f 1109//204 1129//204 1168//204 1160//204
f 1120//205 1100//205 1156//205 1164//205
f 1100//33 1099//33 1155//33 1156//33
f 1131//206 1111//206 1157//206 1165//206
f 1111//33 1112//33 1158//33 1157//33
f 1118//207 1098//207 1154//207 1162//207
f 1113//32 1109//32 1160//32 1159//32
usemtl Material.003
f 318//208 301//208 398//208 399//208
f 235//2 325//2 354//2 375//2
f 326//2 251//2 357//2 356//2
f 317//1 302//1 396//1 397//1
f 299//209 336//209 372//209 373//209
f 316//210 286//210 402//210 395//210
f 1065//7 1064//7 352//7 353//7
f 313//2 269//2 285//2 315//2
f 337//211 304//211 371//211 374//211
f 205//212 305//212 343//212 340//212
f 286//195 315//195 393//195 402//195
f 221//8 309//8 383//8 342//8
f 1074//9 1076//9 392//9 401//9
f 1074//2 313//2 315//2 286//2
f 285//208 318//208 399//208 394//208
f 311//8 269//8 387//8 386//8
f 313//1 1074//1 401//1 391//1
f 269//1 313//1 391//1 387//1
f 302//210 316//210 395//210 396//210
f 312//8 253//8 389//8 390//8
f 237//8 312//8 390//8 328//8
f 305//212 221//212 342//212 343//212
f 1070//9 1037//9 323//9 322//9
f 253//8 311//8 386//8 389//8
f 301//1 317//1 397//1 398//1
f 1063//9 1066//9 384//9 400//9
f 208//213 320//213 346//213 347//213
f 325//2 219//2 355//2 354//2
f 319//214 203//214 345//214 344//214
f 304//1 335//1 370//1 371//1
f 336//209 283//209 376//209 372//209
f 251//2 329//2 361//2 357//2
f 1062//7 1065//7 353//7 350//7
f 335//1 299//1 373//1 370//1
f 288//211 337//211 374//211 366//211
f 320//213 1062//213 350//213 346//213
f 219//214 319//214 344//214 355//214
f 1064//7 1041//7 362//7 352//7
f 1041//7 1068//7 359//7 362//7
f 329//2 235//2 375//2 361//2
f 382//6 346//6 350//6 349//6
f 381//9 353//9 352//9 351//9
f 380//9 358//9 364//9 363//9
f 379//9 362//9 359//9 360//9
f 377//14 374//14 371//14 370//14
f 372//14 377//14 370//14 373//14
f 376//14 365//14 377//14 372//14
f 365//14 366//14 374//14 377//14
f 368//2 378//2 365//2 376//2
f 369//2 363//2 378//2 368//2
f 361//9 379//9 360//9 357//9
f 375//9 351//9 379//9 361//9
f 351//9 352//9 362//9 379//9
f 356//9 380//9 363//9 369//9
f 357//9 360//9 380//9 356//9
f 360//9 359//9 358//9 380//9
f 354//9 381//9 351//9 375//9
f 355//9 349//9 381//9 354//9
f 349//9 350//9 353//9 381//9
f 344//6 382//6 349//6 355//6
f 345//6 348//6 382//6 344//6
f 348//6 347//6 346//6 382//6
f 1068//7 1067//7 358//7 359//7
f 267//2 326//2 356//2 369//2
f 1067//7 1075//7 364//7 358//7
f 407//4 343//4 342//4 339//4
f 406//7 383//7 328//7 331//7
f 405//7 386//7 387//7 391//7
f 404//7 390//7 389//7 388//7
f 403//15 399//15 398//15 397//15
f 395//15 403//15 397//15 396//15
f 402//15 393//15 403//15 395//15
f 393//15 394//15 399//15 403//15
f 323//7 404//7 388//7 322//7
f 400//7 331//7 404//7 323//7
f 331//7 328//7 390//7 404//7
f 392//7 405//7 391//7 401//7
f 322//7 388//7 405//7 392//7
f 388//7 389//7 386//7 405//7
f 384//7 406//7 331//7 400//7
f 385//7 339//7 406//7 384//7
f 339//7 342//7 383//7 406//7
f 338//4 407//4 339//4 385//4
f 332//4 341//4 407//4 338//4
f 341//4 340//4 343//4 407//4
f 315//195 285//195 394//195 393//195
f 1061//215 307//215 338//215 385//215
f 1066//9 1061//9 385//9 384//9
f 307//215 206//215 332//215 338//215
f 1037//9 1063//9 400//9 323//9
f 309//8 237//8 328//8 383//8
f 1076//9 1070//9 322//9 392//9
