# Blender MTL File: 'fish-eyeDrone (Untextured).blend'
# Material Count: 4

newmtl Material.001
Ns 96.078431
Ka 1.000000 1.000000 1.000000
Kd 0.121860 0.116308 0.092405
Ks 0.500000 0.500000 0.500000
Ke 0.000000 0.000000 0.000000
Ni 1.000000
d 1.000000
illum 2

newmtl Material.002
Ns 194.117647
Ka 1.000000 1.000000 1.000000
Kd 0.000000 1.000000 0.901989
Ks 0.500000 0.500000 0.500000
Ke 0.000000 0.000000 0.000000
Ni 1.000000
d 1.000000
illum 2

newmtl Material.003
Ns 96.078431
Ka 1.000000 1.000000 1.000000
Kd 0.800000 0.000000 0.002189
Ks 0.500000 0.500000 0.500000
Ke 0.000000 0.000000 0.000000
Ni 1.000000
d 1.000000
illum 2

newmtl Material.004
Ns 96.078431
Ka 1.000000 1.000000 1.000000
Kd 0.640000 0.266136 0.016556
Ks 0.500000 0.500000 0.500000
Ke 0.000000 0.000000 0.000000
Ni 1.000000
d 1.000000
illum 2
